 Ayeyarwaddy-1
1501| ဦးစိုးဟန်လင်း| ပြည်ထောင်စုကြံ့ခိုင်ရေးနှင့် ဖွံ့ဖြိုးရေးပါတီ| 123033| N	1501| U SOE HAN LIN | Union Solidarity And Development Party| 123033| N
1504| ဦးကိုတင် | တိုင်းရင်းသား စည်းလုံးညီညွတ်ရေးပါတီ| 54113| N	1504| U KO TIN | National Unity Party (NUP)| 54113| N
1505| ဦးအောင်နိုင် | အမျိုးသားဒီမိုကရေစီအင်အားစု| 44845| N	1505|  U AUNG NAING | National Democratic Force| 44845| N
 Ayeyarwaddy-2
578| ဦးမန်းစိန်လှဝင်း| ကရင်ပြည်သူ့ပါတီ| 31291| N	578| U MAHN SEIN HLA WIN| Kayin People’s Party| 31291| N
1506| ဦးစိုးဝင်း | ပြည်ထောင်စုကြံ့ခိုင်ရေးနှင့် ဖွံ့ဖြိုးရေးပါတီ| 124100| N	1506|  U SOE WIN | Union Solidarity And Development Party| 124100| N
1507| ဦးစောဂျဲလ်ဆင် | တိုင်းရင်းသား စည်းလုံးညီညွတ်ရေးပါတီ| 83801| N	1507|  U SAW JACKSON | National Unity Party (NUP)| 83801| N
 Ayeyarwaddy-3
1508| ဦးဉာဏ်လင်း | ပြည်ထောင်စုကြံ့ခိုင်ရေးနှင့် ဖွံ့ဖြိုးရေးပါတီ| 134610| N	1508|  U NYAN LINN | Union Solidarity And Development Party| 134610| N
1509| ဦးအေးကျော် | တိုင်းရင်းသား စည်းလုံးညီညွတ်ရေးပါတီ| 83376| N	1509|  U AYE KYAW | National Unity Party (NUP)| 83376| N
 Ayeyarwaddy-4
229| ဦးညွန့်လှိုင်| ပြည်ထောင်စုကြံ့ခိုင်ရေးနှင့် ဖွံ့ဖြိုးရေးပါတီ| 210604| N	229| U NYUNT HLAING| Union Solidarity And Development Party| 210604| N
1510|  ဦးလှရှိန် | တိုင်းရင်းသား စည်းလုံးညီညွတ်ရေးပါတီ| 56933| N	1510| U HLA SHEIN| National Unity Party (NUP)| 56933| N
 Ayeyarwaddy-5
1511| ဒေါက်တာဌေးဝင်း| ပြည်ထောင်စုကြံ့ခိုင်ရေးနှင့် ဖွံ့ဖြိုးရေးပါတီ| 147403| N	1511|  DR. HTAT WIN | Union Solidarity And Development Party| 147403| N
1512| ဦးစောဟင်နရီ | တိုင်းရင်းသား စည်းလုံးညီညွတ်ရေးပါတီ| 32541| N	1512| U SAW HENRY | National Unity Party (NUP)| 32541| N
 Ayeyarwaddy-6
228| ဦးခင်မောင်ရီ| ပြည်ထောင်စုကြံ့ခိုင်ရေးနှင့် ဖွံ့ဖြိုးရေးပါတီ| 105647| N	228| U KHIN MAUNG YEE | Union Solidarity And Development Party| 105647| N
1513| ဦးကျော်သောင်း | တိုင်းရင်းသား စည်းလုံးညီညွတ်ရေးပါတီ| 51289| N	1513|  U KYAW THAUNG | National Unity Party (NUP)| 51289| N
 Ayeyarwaddy-7
978| ဦးအောင်မျိုးလှိုင်| အမျိုးသားဒီမိုကရေစီအင်အားစု| 40909| N	978| U Aung Myo Hlaing| National Democratic Force| 40909| N
1514| ဒေါက်တာဌေးနိုင် | ပြည်ထောင်စုကြံ့ခိုင်ရေးနှင့် ဖွံ့ဖြိုးရေးပါတီ| 197835|N	1514|  DR. HTAY NAING | Union Solidarity And Development Party| 197835| N
1515|  ဦးမန်းထွန်းဝင်း | တိုင်းရင်းသား စည်းလုံးညီညွတ်ရေးပါတီ| 125397| N	1515|  U MANN TUN WIN | National Unity Party (NUP)| 125397| N
 Ayeyarwaddy-8
230| ဦးသက်လင်း| ပြည်ထောင်စုကြံ့ခိုင်ရေးနှင့် ဖွံ့ဖြိုးရေးပါတီ| 175721| N	230| U Thet Lin | Union Solidarity And Development Party| 175721| N
628| ဦးအောင်မြင့်| ခေတ်သစ်ပြည်သူ့ပါတီ| 18505| N	628| U AUNG MYINT| Modern People’s Party| 18505| N
1516| ဒေါ်လှငေွ | တိုင်းရင်းသား စည်းလုံးညီညွတ်ရေးပါတီ| 65350| N	1516| DAW HLA NGWE | National Unity Party (NUP)| 65350| N
 Ayeyarwaddy-9
1517| ဦးဝင်းသိန်း| ပြည်ထောင်စုကြံ့ခိုင်ရေးနှင့် ဖွံ့ဖြိုးရေးပါတီ| 119260| N	1517|  U WIN THEIN | Union Solidarity And Development Party| 119260| N
1518| ဦးမန်းထိန်ဝင်းစိန် | တိုင်းရင်းသား စည်းလုံးညီညွတ်ရေးပါတီ| 94505| N	1518|  U MANN HTEIN WIN SEIN | National Unity Party (NUP)| 94505| N
 Ayeyarwaddy-10
629| ဦးသိန်းရေွှ| ခေတ်သစ်ပြည်သူ့ပါတီ| 17632| N	629| U THEIN SHWE| Modern People’s Party| 17632| N
1519| ဒေါက်တာမြတ်မြတ်အုန်းခင် | ပြည်ထောင်စုကြံ့ခိုင်ရေးနှင့် ဖွံ့ဖြိုးရေးပါတီ|156485| N	1519|  DR. MYAT MYAT OHN KHIN | Union Solidarity And Development Party|156485| N
1520| ဦးအေးမြင့်မောင် | တိုင်းရင်းသား စည်းလုံးညီညွတ်ရေးပါတီ| 45827| N	1520|  U AYE MYINT MAUNG | National Unity Party (NUP)| 45827| N
 Ayeyarwaddy-11
614| ဦးအုန်းလွင်|  အမျိုးသားနိုင်ငံရေးမဟာမိတ်များအဖွဲ့ချုပ်| 14402| N	614| U OHN LWIN| National Political Alliances League| 14402| N
624| ဦးဘဝင်း| မတူကွဲပြားခြင်းနှင့်ငြိမ်းချမ်းရေးပါတီ| 12377| N	624| U BA WIN|  Peace and Diversity Party | 12377| N
627| ဒေါ်ရီရီစံ| ခေတ်သစ်ပြည်သူ့ပါတီ| 11894| N	627| DAW YI YI SAN| Modern People’s Party| 11894| N
1521| ဦးမောင်မောင်အေး | ပြည်ထောင်စုကြံ့ခိုင်ရေးနှင့် ဖွံ့ဖြိုးရေးပါတီ| 141047|N	1521|  U MAUNG MAUNG AYE | Union Solidarity And Development Party| 141047| N
1522| ဦးမန်းဖေဝင်း | တိုင်းရင်းသား စည်းလုံးညီညွတ်ရေးပါတီ| 60363| N	1522|  U MANN PE WIN | National Unity Party (NUP)| 60363| N
 Ayeyarwaddy-12
1523| ဦးလိှုင်ဦး| ပြည်ထောင်စုကြံ့ခိုင်ရေးနှင့် ဖွံ့ဖြိုးရေးပါတီ| 176215| N	1523|  U HLAING OO)| Union Solidarity And Development Party| 176215| N
1524| ဦးကျော်မြ | တိုင်းရင်းသား စည်းလုံးညီညွတ်ရေးပါတီ| 116296| N	1524|  U KYAW MYA | National Unity Party (NUP)| 116296| N
1525| ဦးခင်လိှုင် | တစ်သီးပုဂ္ဂလကိုယ်စားလှယ်လောင်းများ| 74059| N	1525|  U KHIN HLAING| Independent Candidates| 74059| N
 Bago-1
66| ဦးသိန်းဌေး|  ပြည်ထောင်စု ဒီမိုကရေစီပါတီ| 26492| N	66| Thein Htay (U)| Union Democracy Party| 26492| N
1197| ဦးစောမော်ထွန်း | ပြည်ထောင်စုကြံ့ခိုင်ရေးနှင့် ဖွံ့ဖြိုးရေးပါတီ| 88406| N	1197|  U SAW MAW TUN | Union Solidarity And Development Party| 88406| N
1198| ဦးအောင်နိုင်ဆေွ | တိုင်းရင်းသား စည်းလုံးညီညွတ်ရေးပါတီ| 40084| N	1198| U AUNG NAING SWE | National Unity Party (NUP)| 40084| N
 Bago-2
1199|  ဦးဖိုးဇော် | ပြည်ထောင်စုကြံ့ခိုင်ရေးနှင့် ဖွံ့ဖြိုးရေးပါတီ| 99358| N	1199| U PHOE ZAW | Union Solidarity And Development Party| 99358| N
1200| ဦးသိန်းဇံ | တိုင်းရင်းသား စည်းလုံးညီညွတ်ရေးပါတီ| 54934| N	1200| U THEIN ZAN | National Unity Party (NUP)| 54934| N
 Bago-3
1201| ဦးတင်မြင့် | ပြည်ထောင်စုကြံ့ခိုင်ရေးနှင့် ဖွံ့ဖြိုးရေးပါတီ| 114022| N	1201|  U TIN MYINT | Union Solidarity And Development Party| 114022| N
1202| ဦးအောင်သိန်း | တိုင်းရင်းသား စည်းလုံးညီညွတ်ရေးပါတီ| 72005| N	1202|  U AUNG THEIN | National Unity Party (NUP)| 72005| N
 Bago-4
1203| ဦးရဲမြင့် | ပြည်ထောင်စုကြံ့ခိုင်ရေးနှင့် ဖွံ့ဖြိုးရေးပါတီ| 107242| N	1203|  U YE MYINT | Union Solidarity And Development Party| 107242| N
1204| ဦးအောင်ကြည်ဝင်း | တိုင်းရင်းသား စည်းလုံးညီညွတ်ရေးပါတီ| 81520| N	1204|  U AUNG KYI WIN | National Unity Party (NUP)| 81520| N
 Bago-5
40| စောစေးဝါးညွန့်| ကရင်ပြည်သူ့ပါတီ| 8349| N	40| U SAW SAY WAR NYUNT| Kayin People’s Party| 8349| N
991| ဦးဝင်းထွန်း| အမျိုးသားဒီမိုကရေစီအင်အားစု| 17431| N	991| U Win Htun| National Democratic Force| 17431| N
1205| ဦးဝင်းနိုင်ရှိန် | ပြည်ထောင်စုကြံ့ခိုင်ရေးနှင့် ဖွံ့ဖြိုးရေးပါတီ|128046| N	1205|  U WIN NAING SHEIN | Union Solidarity And Development Party| 128046| N
1206| ဦးစိုးမြင့် | တိုင်းရင်းသား စည်းလုံးညီညွတ်ရေးပါတီ| 53027| N	1206|  U SOE MYINT )| National Unity Party (NUP)| 53027| N
 Bago-6
1207| ဦးသက်နိုင်ဦး| ပြည်ထောင်စုကြံ့ခိုင်ရေးနှင့် ဖွံ့ဖြိုးရေးပါတီ| 96338| N	1207| U THET NAING OO| Union Solidarity And Development Party| 96338| N
1208| ဦးကျော်စိုး | တိုင်းရင်းသား စည်းလုံးညီညွတ်ရေးပါတီ| 68863| N	1208|  U KYAW SOE | National Unity Party (NUP)| 68863| N
 Bago-7
1209| ဒေါ်ချိုနွယ်ဦး| ပြည်ထောင်စုကြံ့ခိုင်ရေးနှင့် ဖွံ့ဖြိုးရေးပါတီ| 81058| N	1209|  DAW CHO NWE OO | Union Solidarity And Development Party| 81058| N
1210| ဦးသိန်းမြင့် | တိုင်းရင်းသား စည်းလုံးညီညွတ်ရေးပါတီ| 40830| N	1210|  U SEIN MYINT | National Unity Party (NUP)| 40830| N
 Bago-8
371| ဦးကျော်ကျော်အောင်| ပြည်ထောင်စုမြန်မာနိုင်ငံ | အမျိုးသားနိုင်ငံရေးအဖွဲ့ချုပ်| 49475| N	371| U KYAW KYAW AUNG| Union Of Myanmar Federation Of National Politics|49475| N
1211| ဒေါက်တာခင်မောင်လေး | ပြည်ထောင်စုကြံ့ခိုင်ရေးနှင့် ဖွံ့ဖြိုးရေးပါတီ|136324| N	1211| U MAUNG MAUNG LAY | Union Solidarity And Development Party| 136324| N
1212| ဦးတင်မောင်ဆေွ | တိုင်းရင်းသား စည်းလုံးညီညွတ်ရေးပါတီ| 62500| N	1212| U TIN MAUNG SWE | National Unity Party (NUP)| 62500| N
 Bago-9
25| ဦးအေးလွင်| ပြည်ထောင်စုမြန်မာနိုင်ငံ အမျိုးသားနိုင်ငံရေးအဖွဲ့ချုပ်| 48389|N	25| U AYE LWIN| Union Of Myanmar Federation Of National Politics| 48389| N
1213| ဒေါက်တာမြဦး | ပြည်ထောင်စုကြံ့ခိုင်ရေးနှင့် ဖွံ့ဖြိုးရေးပါတီ| 110250| N	1213|  DR. MYA OO | Union Solidarity And Development Party| 110250| N
1214| ဦးသောင်းရေွှ | တိုင်းရင်းသား စည်းလုံးညီညွတ်ရေးပါတီ| 44687| N	1214|  U THAUNG SHWE | National Unity Party (NUP)| 44687| N
 Bago-10
1215| ဦးမြင့်ထွန်း | ပြည်ထောင်စုကြံ့ခိုင်ရေးနှင့် ဖွံ့ဖြိုးရေးပါတီ| 83288| N	1215|  U MYINT TUN | Union Solidarity And Development Party| 83288| N
1216| ဦးညွန့်ရင် | တိုင်းရင်းသား စည်းလုံးညီညွတ်ရေးပါတီ| 57979| N	1216|  U NYUNT YIN | National Unity Party (NUP)| 57979| N
 Bago-11
992| ဦးကြည်ဟန်| အမျိုးသားဒီမိုကရေစီအင်အားစု| 36156| N	992| U Kyi Han| National Democratic Force| 36156| N
1217| ဦးညွန့်ရင် | ပြည်ထောင်စုကြံ့ခိုင်ရေးနှင့် ဖွံ့ဖြိုးရေးပါတီ| 92771| N	1217|  U NYUNT YIN | Union Solidarity And Development Party| 92771| N
1218| ဦးဝင်း | တိုင်းရင်းသား စည်းလုံးညီညွတ်ရေးပါတီ| 50953| N	1218|  U WIN | National Unity Party (NUP)| 50953| N
 Bago-12
567| ဦးဇေယျာလိှူင်| ဒီမိုကရက်တစ်ပါတီ(မြန်မာ)| 40574| N	567| U ZEYA HLAING| Democratic Party (Myanmar)| 40574| N
1219| ဦးထွန်းဇော်(ခ)ကိုပေါက် | ပြည်ထောင်စုကြံ့ခိုင်ရေးနှင့် ဖွံ့ဖြိုးရေးပါတီ|97477| N	1219|  U TUN ZAW (a)KO PAUK | Union Solidarity And Development Party| 97477| N
1220| ဒေါ်တင်တင်ထေွး | တိုင်းရင်းသား စည်းလုံးညီညွတ်ရေးပါတီ| 45604| N	1220|  DAW TIN TIN HTWE | National Unity Party (NUP)| 45604| N
 Chin-1
309| ဦးရုလ်ဇမ်| ပြည်ထောင်စုကြံ့ခိုင်ရေးနှင့် ဖွံ့ဖြိုးရေးပါတီ| 3848| N	309| U RUL ZAM | Union Solidarity And Development Party| 3848| N
497| ဦးစမာန်| တိုင်းရင်းသား စည်းလုံးညီညွတ်ရေးပါတီ| 916| N	497| U CA MANG| National Unity Party (NUP)| 916| N
662| ဒေါ်လဲန်ဗဲလ်| ချင်းအမျိုးသားပါတီ| 1269| N	662| DAW LEN VEL| Chin National Party| 1269| N
691| ဦးကျွန်ခဲန်း | ချင်းတိုးတက်ရေးပါတီ| 4785| N	691| U COM KHEN| Chin Progressive Party| 4785| N
 Chin-2
310| ဒေါ်ရေွှထေွး| ပြည်ထောင်စုကြံ့ခိုင်ရေးနှင့် ဖွံ့ဖြိုးရေးပါတီ| 4058| N	310| DAW SHWE HTWE| Union Solidarity And Development Party| 4058| N
498| ဦးဗန်လွန်| တိုင်းရင်းသား စည်းလုံးညီညွတ်ရေးပါတီ| 766| N	498| U VAN LUNG| National Unity Party (NUP)| 766| N
692| ဦးဇုန်လှယ်ထန်း | ချင်းတိုးတက်ရေးပါတီ| 5230| N	692| U ZUNG HLEI THANG| Chin Progressive Party| 5230| N
 Chin-3
311| ဦးမှှုှံကီယို| ပြည်ထောင်စုကြံ့ခိုင်ရေးနှင့် ဖွံ့ဖြိုးရေးပါတီ| 8072| N	311| U MHON KEE RO| Union Solidarity And Development Party| 8072| N
663| ဦးပေါလ်ထန်ျထိုင်း| ချင်းအမျိုးသားပါတီ| 12370| N	663| U POL HTANG HTAING| Chin National Party| 12370| N
1190| ဦးဘေွထန်းကျင်ဇ| ညီညွတ်သောဒီမိုကရက်တစ်ပါတီ| 1347| N	1190| U BWE HTANG CIN ZA| United Democracy Party| 1347| N
 Chin-4
312| ဦးယောဟန်| ပြည်ထောင်စုကြံ့ခိုင်ရေးနှင့် ဖွံ့ဖြိုးရေးပါတီ| 4650| N	312| U YAW HAN| Union Solidarity And Development Party| 4650| N
499| ဦးဘရက်ခံ| တိုင်းရင်းသား စည်းလုံးညီညွတ်ရေးပါတီ| 1830| N	499| U BYET KHAM| National Unity Party (NUP)| 1830| N
664| ဦးစတီဗင်ထာဘိတ်| ချင်းအမျိုးသားပါတီ| 10435| N	664| U STEPHEN TARBEIT| Chin National Party| 10435| N
 Chin-5
313| ဦးခမ်ဆွင်းမုန်| ပြည်ထောင်စုကြံ့ခိုင်ရေးနှင့် ဖွံ့ဖြိုးရေးပါတီ| 6434| N	313| U KHAM SUIN MHON| Union Solidarity And Development Party| 6434| N
500| ဦးကိုတုတ်ချင်းထန်| တိုင်းရင်းသား စည်းလုံးညီညွတ်ရေးပါတီ| 5147| N	500| U KOTE CHIN HTANG| National Unity Party (NUP)| 5147| N
665| ဦးခုပ်လျန်း| ချင်းအမျိုးသားပါတီ| 4486| N	665| U KHU LIAN| Chin National Party| 4486| N
693| ဦးဝင့်ဟဲ့လျန်း | ချင်းတိုးတက်ရေးပါတီ| 1241| N	693| U WINT HEI LIANG| Chin Progressive Party| 1241| N
 Chin-6
314| ဦးဆွန်ဒုတ်ကျင့်| ပြည်ထောင်စုကြံ့ခိုင်ရေးနှင့် ဖွံ့ဖြိုးရေးပါတီ| 6104| N	314| U SUN DOKE KYIN| Union Solidarity And Development Party| 6104| N
501| ဦးထန်စွမ်းပေါင်| တိုင်းရင်းသား စည်းလုံးညီညွတ်ရေးပါတီ| 3680| N	501| U HTAUNT SAWM PAU| National Unity Party (NUP)| 3680| N
666| ဦးလန်းဇမန်| ချင်းအမျိုးသားပါတီ| 5646| N	666| U LAN ZAMAN| Chin National Party| 5646| N
694| ဦးအက်စ်ဘီခန့်ဇမ်းဝုန်| ချင်းတိုးတက်ရေးပါတီ| 1761| N	694| U M.B. CAM ZAWON| Chin Progressive Party| 1761| N
 Chin-7
315| ဦးနိန်းခင်းပေါင်| ပြည်ထောင်စုကြံ့ခိုင်ရေးနှင့် ဖွံ့ဖြိုးရေးပါတီ| 5579| N	315| U NEIN KIM PAU| Union Solidarity And Development Party| 5579| N
502| ဦးလိုခိုဟန်| တိုင်းရင်းသား စည်းလုံးညီညွတ်ရေးပါတီ| 1891| N	502| U LO KHO HAN| National Unity Party (NUP)| 1891| N
695| ဦးခမ်ဟောက်လျန်း | ချင်းတိုးတက်ရေးပါတီ| 4696| N	695| U CAM HAU LIANG| Chin Progressive Party| 4696| N
 Chin-8
316| ဦးဟာရှိန်းဘေွ| ပြည်ထောင်စုကြံ့ခိုင်ရေးနှင့် ဖွံ့ဖြိုးရေးပါတီ| 6882| N	316| U HAR SHEIN BWE| Union Solidarity And Development Party| 6882| N
370| ဦးအောင်လိန်းဖေ| ပြည်ထောင်စုမြန်မာနိုင်ငံ အမျိုးသားနိုင်ငံရေးအဖွဲ့ချုပ်|1179| N	370| U AUNG LEIN PE| Union Of Myanmar Federation Of National Politics| 1179| N
503| ဦးဖီလင်းမောင်| တိုင်းရင်းသား စည်းလုံးညီညွတ်ရေးပါတီ| 3968| N	503| U PE LEIN MAUNG| National Unity Party (NUP)| 3968| N
667| ဦးထန်းကီး| ချင်းအမျိုးသားပါတီ| 2107| N	667| U TAN KI| Chin National Party| 2107| N
696| ဦးလိန်းအွမ်| ချင်းတိုးတက်ရေးပါတီ| 2392| N	696| U LING UNG| Chin Progressive Party| 2392| N
 Chin-9
317| ဦးအာမီ| ပြည်ထောင်စုကြံ့ခိုင်ရေးနှင့် ဖွံ့ဖြိုးရေးပါတီ| 5261| N	317| U AR MI| Union Solidarity And Development Party| 5261| N
697| ဦးပေါ်လှျံလွင်| ချင်းတိုးတက်ရေးပါတီ| 6385| N	697| U PAUL LIA LWIN| Chin Progressive Party| 6385| N
1191| ဦးဆန်လေှးမန် |  တိုင်းရင်းသားလူမျိုးစုများဖွံ့ဖြိုးရေးပါတီ| 6005| N	1191|  U SANG HLEI MANG | Ethnic National Development Party (ENDP)| 6005| N
1192| ဒေါက်တာဌေးဝင်း | အမျိုးသားဒီမိုကရေစီအင်အားစု| 4983| N	1192|  DR. HTAY WIN| National Democratic Force| 4983| N
 Chin-10
318| ဦးမနားနိုင်း| ပြည်ထောင်စုကြံ့ခိုင်ရေးနှင့် ဖွံ့ဖြိုးရေးပါတီ| 2899| N	318| U MANA NAING| Union Solidarity And Development Party| 2899| N
504| ဦးလှမောင်| တိုင်းရင်းသား စည်းလုံးညီညွတ်ရေးပါတီ| 1310| N	504| U HLA MAUNG| National Unity Party (NUP)| 1310| N
668| ဦးလိန်းပိုင်း| ချင်းအမျိုးသားပါတီ| 1137| N	668| U LEIN PAING| Chin National Party| 1137| N
698| ဦးမနားရှင်း| ချင်းတိုးတက်ရေးပါတီ| 2715| N	698| U MANA SHING| Chin Progressive Party| 2715| N
 Chin-11
319| ဦးသိန်းထွန်း| ပြည်ထောင်စုကြံ့ခိုင်ရေးနှင့် ဖွံ့ဖြိုးရေးပါတီ| 3469| N	319| U THEIN TUN| Union Solidarity And Development Party| 3469| N
699| ဦးဝေှ့ယိန်း | ချင်းတိုးတက်ရေးပါတီ| 8407| N	699| U WAI YING | Chin Progressive Party| 8407| N
1193| ဦးကျော်ကျော်ဖြူ| အမျိုးသားဒီမိုကရေစီအင်အားစု| 2111| N	1193|  U KYAW KYAW PHYU | National Democratic Force| 2111| N
1194| ဦးကျော်မြင့် | ညီညွတ်သောဒီမိုကရက်တစ်ပါတီ| 4304| N	1194|  U KYAW MYINT | United Democracy Party| 4304| N
 Chin-12
320| ဦးဆလိုင်းခွဲယန်| ပြည်ထောင်စုကြံ့ခိုင်ရေးနှင့် ဖွံ့ဖြိုးရေးပါတီ| 6075| N	320| U SALAI KWE YAN| Union Solidarity And Development Party| 6075| N
505| ဦးမောင်စံအေး| တိုင်းရင်းသား စည်းလုံးညီညွတ်ရေးပါတီ| 1565| N	505| U MAUNG SAN AYE| National Unity Party (NUP)| 1565| N
700| ဦးဘူးလွင်| ချင်းတိုးတက်ရေးပါတီ| 5758| N	700| U BU LWIN| Chin Progressive Party| 5758| N
1195| ဦးသန်းကျော်အောင် | အမျိုးသားဒီမိုကရေစီအင်အားစု| 2546| N	1195| U THAN KYAW AUNG | National Democratic Force| 2546| N
1196| ဦးမြင့်မောင် | ညီညွတ်သောဒီမိုကရက်တစ်ပါတီ| 1367| N	1196|  U MYINT MAUNG | United Democracy Party| 1367| N
 Kachin-1
747| ဦးခက်ထိန်နန်| စည်းလုံးညီညွှတ်ရေးနှင့် ဒီမိုကရေစီပါတီ ကချင်ပြည်နယ် (စဒက)|52391| N	747| U KET HTEIN NAN| Unity Democracy Party of Kachin State| 52391| N
1077| ဦးမာလာလေး| ရှမ်းတိုင်းရင်းသားများဒီမိုကရက်တစ်ပါတီ| 28510| N	1077| U Malar Lay| Shan Nationalities Democratic Party| 28510| N
 Kachin-2
1141| ဦးမင်းကြည်| ပြည်ထောင်စုကြံ့ခိုင်ရေးနှင့် ဖွံ့ဖြိုးရေးပါတီ| 9864| N	1141| U Min Kyi| Union Solidarity And Development Party| 9864| N
1091| ဦးစိုင်းဝင်းထင်| ရှမ်းတိုင်းရင်းသားများဒီမိုကရက်တစ်ပါတီ| 9848| N	1091| U Sai Win Tin| Shan Nationalities Democratic Party| 9848| N
1142| ဦးဂမ်ဆိုင်း| တိုင်းရင်းသား စည်းလုံးညီညွတ်ရေးပါတီ| 14294| N	1142| U GAN SENG| National Unity Party (NUP)| 14294| N
 Kachin-3
749| ဒေါ်ရှဒေါင်းခွမ်တောင် | စည်းလုံးညီညွှတ်ရေးနှင့် ဒီမိုကရေစီပါတီ ကချင်ပြည်နယ်(စဒက)| 5260| N	749| DAW SHADAUNG KWAN TAUNG| Unity Democracy Party of Kachin State| 5260| N
1144| ဦးဘရန်ရေှာင်| တိုင်းရင်းသား စည်းလုံးညီညွတ်ရေးပါတီ| 7196| N	1144| U BRENG SHAUNG| National Unity Party (NUP)| 7196| N
 Kachin-4
1145| ဦးမဂျီဇော်တောင် | တိုင်းရင်းသား စည်းလုံးညီညွတ်ရေးပါတီ| 4047| N	1145| U MA GYI ZAW TAUNG| National Unity Party (NUP)| 4047| N
1146| ဦးစခုန်တိန့်ယိန်း | တစ်သီးပုဂ္ဂလကိုယ်စားလှယ်လောင်းများ| 6953| N	1146| U ZAHKUNG TING YING| Independent Candidates| 6953| N
 Kachin-5
1040| ဦးစောဝင်းထွန်း | ရှမ်းတိုင်းရင်းသားများဒီမိုကရက်တစ်ပါတီ| 8550| N	1040| U Saw Win Tun | Shan Nationalities Democratic Party| 8550| N
1147| ဦးစိုင်းတင်အောင် | ပြည်ထောင်စုကြံ့ခိုင်ရေးနှင့် ဖွံ့ဖြိုးရေးပါတီ| 16172|N	1147| U SAI TIN AUNG| Union Solidarity And Development Party| 16172| N
1148| ဦးကိုကိုဦး | တိုင်းရင်းသား စည်းလုံးညီညွတ်ရေးပါတီ| 8419| N	1148| U KO KO OO| National Unity Party (NUP)| 8419| N
 Kachin-6
1149| ဦးဖေသောင်း | ပြည်ထောင်စုကြံ့ခိုင်ရေးနှင့် ဖွံ့ဖြိုးရေးပါတီ| 15176| N	1149| U PE THAUNG| Union Solidarity And Development Party| 15176| N
1150| ဦးမောင်နွဲ့ | တိုင်းရင်းသား စည်းလုံးညီညွတ်ရေးပါတီ| 6437| N	1150| U MAUNG NWE| National Unity Party (NUP)| 6437| N
1151| ဦးစံသိန်း | ရှမ်းတိုင်းရင်းသားများဒီမိုကရက်တစ်ပါတီ| 9242| N	1151| U SAN THEIN| Shan Nationalities Democratic Party| 9242| N
 Kachin-7
1036| ဦးစောသန်းမြင့်| ရှမ်းတိုင်းရင်းသားများဒီမိုကရက်တစ်ပါတီ| 13056| N	1036| U Saw Than Myint| Shan Nationalities Democratic Party| 13056| N
1152| ဦးစံပြည့်| ပြည်ထောင်စုကြံ့ခိုင်ရေးနှင့် ဖွံ့ဖြိုးရေးပါတီ| 31549| N	1152|  U SAN PYEI| Union Solidarity And Development Party| 31549| N
 Kachin-8
1084| စိုင်းသန်းရေွှ| ရှမ်းတိုင်းရင်းသားများဒီမိုကရက်တစ်ပါတီ| 15382| N	1084| Sai Than Shwe| Shan Nationalities Democratic Party| 15382| N
1153| ဦးမြအုန်း | ပြည်ထောင်စုကြံ့ခိုင်ရေးနှင့် ဖွံ့ဖြိုးရေးပါတီ| 37606| N	1153|  U MYA OHN| Union Solidarity And Development Party| 37606| N
 Kachin-9
1154| ဦးထွန်းလွင် | ပြည်ထောင်စုကြံ့ခိုင်ရေးနှင့် ဖွံ့ဖြိုးရေးပါတီ| 13880| N	1154|  U TUN LWIN| Union Solidarity And Development Party| 13880| N
1155| ဦးအုန်းငေွ | တိုင်းရင်းသား စည်းလုံးညီညွတ်ရေးပါတီ| 8323| N	1155|  U OHN NGWE| National Unity Party (NUP)| 8323| N
1156| ဦးကျော်ဦး | ရှမ်းတိုင်းရင်းသားများဒီမိုကရက်တစ်ပါတီ| 4222| N	1156| U KYAW OO| Shan Nationalities Democratic Party| 4222| N
 Kachin-10
748| ဦးဖော်လားကမ်ဖန်| စည်းလုံးညီညွှတ်ရေးနှင့် ဒီမိုကရေစီပါတီ ကချင်ပြည်နယ် (စဒက)| 13001| N	748| U PHAW LAR KAM PHAN| Unity Democracy Party of Kachin State| 13001| N
1157| ဦးစိုင်းမြမောင်| ရှမ်းတိုင်းရင်းသားများဒီမိုကရက်တစ်ပါတီ| 15250| N	1157| U SAIN MYA MAUNG| Shan Nationalities Democratic Party| 15250| N
 Kachin-11
1158| ဦးစံထွန်း | ပြည်ထောင်စုကြံ့ခိုင်ရေးနှင့် ဖွံ့ဖြိုးရေးပါတီ| 26474| N	1158| U SAN TUN| Union Solidarity And Development Party| 26474| N
1159| ဦးမြင့်ရေွှ | တိုင်းရင်းသား စည်းလုံးညီညွတ်ရေးပါတီ| 26013| N	1159| U MYINT SHWE| National Unity Party (NUP)| 26013| N
 Kachin-12
1160| ဦးရယ်ဒန်းတန် | ပြည်ထောင်စုကြံ့ခိုင်ရေးနှင့် ဖွံ့ဖြိုးရေးပါတီ| 19553| N	1160|  U REH DIN TANG| Union Solidarity And Development Party| 19553| N
1161| ဦးဂျေယောဝူ | တိုင်းရင်းသား စည်းလုံးညီညွတ်ရေးပါတီ| 25107| N	1161| U JAE YAW WU| National Unity Party (NUP)| 25107| N
 Kayah-1
1457| ဦးပီမောင်စိုး | ပြည်ထောင်စုကြံ့ခိုင်ရေးနှင့် ဖွံ့ဖြိုးရေးပါတီ| 23249| N	1457|  U P. MAUNG SOE| Union Solidarity And Development Party| 23249| N
1458| ဦးအယ်လိယာ | တိုင်းရင်းသား စည်းလုံးညီညွတ်ရေးပါတီ| 5995| N	1458| U L.LIYAR | National Unity Party (NUP)| 5995| N
 Kayah-2
1459| ဦးကျော်ဒင်(ခ)ဦးထေးရယ် | ပြည်ထောင်စုကြံ့ခိုင်ရေးနှင့် ဖွံ့ဖြိုးရေးပါတီ|20852| N	1459|  U KYAW DIN (a) U HTAYAY| Union Solidarity And Development Party| 20852|N
1460| ဦးစောချယ်ရီဘတ် | တိုင်းရင်းသား စည်းလုံးညီညွတ်ရေးပါတီ| 9231| N	1460| U SAW CHERRYBAT| National Unity Party (NUP)| 9231| N
 Kayah-3
1461| ဦးဘိုရယ် | ပြည်ထောင်စုကြံ့ခိုင်ရေးနှင့် ဖွံ့ဖြိုးရေးပါတီ| 11662| N	1461| U BO YAY | Union Solidarity And Development Party| 11662| N
1462| ဦးငါးရယ်ကျော်ဟန် | တိုင်းရင်းသား စည်းလုံးညီညွတ်ရေးပါတီ| 1387| N	1462| U NGARYAY KYAW HAN | National Unity Party (NUP)| 1387| N
1463| ဦးကျော်ဝင်း | ကယန်းအမျိုးသားပါတီ| 1656| N	1463|  U KYAW WIN | Kayan National Party| 1656| N
 Kayah-4
1490| ဒေါ်မေးရီယန်| ပြည်ထောင်စုကြံ့ခိုင်ရေးနှင့် ဖွံ့ဖြိုးရေးပါတီ| 15255| N	1490| DAW MERRY YAN| Union Solidarity And Development Party| 15255| N
1491| ဦးဒိုနေးရှာ| တိုင်းရင်းသား စည်းလုံးညီညွတ်ရေးပါတီ| 1152| N	1491| SAW DOH NAY SHAR| National Unity Party (NUP)| 1152| N
1492| ဦးခလိုက်| ကယန်းအမျိုးသားပါတီ| 3020| N	1492| U KA LAING| Kayan National Party| 3020| N
 Kayah-5
1465| ဦးဆန်းရယ် | ပြည်ထောင်စုကြံ့ခိုင်ရေးနှင့် ဖွံ့ဖြိုးရေးပါတီ| 3360| N	1465|  U SAN YAY | Union Solidarity And Development Party| 3360| N
1466| ဦးဖရေးရယ် | တိုင်းရင်းသား စည်းလုံးညီညွတ်ရေးပါတီ| 1641| N	1466| U PHAREYAY| National Unity Party (NUP)| 1641| N
 Kayah-6
1467| ဦးဆားရယ် | ပြည်ထောင်စုကြံ့ခိုင်ရေးနှင့် ဖွံ့ဖြိုးရေးပါတီ| 4250| N	1467|  U SARYAY| Union Solidarity And Development Party| 4250| N
1468| ဦးစတင်ဖါနို | တိုင်းရင်းသား စည်းလုံးညီညွတ်ရေးပါတီ| 918| N	1468|  U STEFANO | National Unity Party (NUP)| 918| N
 Kayah-7
1470| ဦးဌေးရယ် | ပြည်ထောင်စုကြံ့ခိုင်ရေးနှင့် ဖွံ့ဖြိုးရေးပါတီ| 135| N	1470|  U HTYAYAY| Union Solidarity And Development Party| 135| N
1471| ဒေါ်ယဉ်ထေွးငယ် | တိုင်းရင်းသား စည်းလုံးညီညွတ်ရေးပါတီ| 7| N	1471| DAW YIN HTWE NGE| National Unity Party (NUP)| 7| N
 Kayah-8
1473| ဦးပိုးရယ်အောင်သိန်း | ပြည်ထောင်စုကြံ့ခိုင်ရေးနှင့် ဖွံ့ဖြိုးရေးပါတီ|1387| N	1473|  U POYAY AUNG THEIN| Union Solidarity And Development Party| 1387| N
1474| ဦးစိုင်းအုန်းမြင့် | တိုင်းရင်းသား စည်းလုံးညီညွတ်ရေးပါတီ| 220| N	1474|  U SAI OHN MYINT | National Unity Party (NUP)| 220| N
 Kayah-9
1476| ဦးကော်ရိုင် | ပြည်ထောင်စုကြံ့ခိုင်ရေးနှင့် ဖွံ့ဖြိုးရေးပါတီ| 4616| N	1476|  U KAWYAING | Union Solidarity And Development Party| 4616| N
1477| ဦးနီးကာ | တိုင်းရင်းသား စည်းလုံးညီညွတ်ရေးပါတီ| 421| N	1477| U NIKA | National Unity Party (NUP)| 421| N
 Kayah-10
1478| ဦးစိုင်းသာစိန် | ပြည်ထောင်စုကြံ့ခိုင်ရေးနှင့် ဖွံ့ဖြိုးရေးပါတီ| 3353| N	1478|  U SAI THA SEIN | Union Solidarity And Development Party| 3353| N
1480| ဦးထွန်းရေွှ | တိုင်းရင်းသား စည်းလုံးညီညွတ်ရေးပါတီ| 205| N	1480|  U TUN SHWE | National Unity Party (NUP)| 205| N
 Kayah-11
1482| ဦးလှမောင် | ပြည်ထောင်စုကြံ့ခိုင်ရေးနှင့် ဖွံ့ဖြိုးရေးပါတီ| 3003| N	1482| U HLA MAUNG | Union Solidarity And Development Party| 3003| N
1483| ဦးကျော်မြင့်| တိုင်းရင်းသား စည်းလုံးညီညွတ်ရေးပါတီ| 83| N	1483|  U KYAW MYINT | National Unity Party (NUP)| 83| N
 Kayah-12
1484| ဦးနှင်းဝေ | ပြည်ထောင်စုကြံ့ခိုင်ရေးနှင့် ဖွံ့ဖြိုးရေးပါတီ| 2547| N	1484| U HNIN WAI | Union Solidarity And Development Party| 2547| N
1486| ဦးထွန်းရင် | တိုင်းရင်းသား စည်းလုံးညီညွတ်ရေးပါတီ| 291| N	1486|  U TUN YIN | National Unity Party (NUP)| 291| N
 Kayin-1
888| စောအောင်ကျော်နိုင် (ခ)ရှားဘူးဖော့| ဖလုံ-စဝေါ် ဒီမိုကရက်တစ်ပါတီ| 25687| N	888| Saw Aung Kyaw Naing (a) SHAR BUPHAWT| Phalon-Sawaw Democratic Party|25687| N
1348| ဦးစောခင်ကျော်ရှိန်| ပြည်ထောင်စုကြံ့ခိုင်ရေးနှင့် ဖွံ့ဖြိုးရေးပါတီ|20442| N	1348|  U SAW KHIN KYAW SHEIN | Union Solidarity And Development Party| 20442|N
1350| ဦးစောဗသိန်းနိုင် | တိုင်းရင်းသား စည်းလုံးညီညွတ်ရေးပါတီ| 14125| N	1350| U SAW BA THEIN NAING | National Unity Party (NUP)| 14125| N
 Kayin-2
889| စောမြထွန်း | ဖလုံ-စဝေါ် ဒီမိုကရက်တစ်ပါတီ| 23181| N	889| Saw Mya Htun| Phalon-Sawaw Democratic Party| 23181| N
1352| ဦးကံညွန့် | ပြည်ထောင်စုကြံ့ခိုင်ရေးနှင့် ဖွံ့ဖြိုးရေးပါတီ| 23181| N	1352| U KAN NYUNT | Union Solidarity And Development Party| 23181| N
1354|  ဦးစိန်အောင် | တိုင်းရင်းသား စည်းလုံးညီညွတ်ရေးပါတီ| 12070| N	1354|  U SEIN AUNG | National Unity Party (NUP)| 12070| N
 Kayin-3
890| စောငြိမ်းသင် | ဖလုံ-စဝေါ် ဒီမိုကရက်တစ်ပါတီ| 16705| N	890| Saw Nyein Thin| Phalon-Sawaw Democratic Party| 16705| N
1355| ဦးစောလင်းခင် | ပြည်ထောင်စုကြံ့ခိုင်ရေးနှင့် ဖွံ့ဖြိုးရေးပါတီ| 12031| N	1355|  U SAW LIN KHIN | Union Solidarity And Development Party| 12031| N
1356| ဦးသန်းထွန်း | တိုင်းရင်းသား စည်းလုံးညီညွတ်ရေးပါတီ| 6500| N	1356|  U THAN TUN | National Unity Party (NUP)| 6500| N
 Kayin-4
891| စောသန်းထွန်း | ဖလုံ-စဝေါ် ဒီမိုကရက်တစ်ပါတီ| 13381| N	891| Saw Than Tun| Phalon-Sawaw Democratic Party| 13381| N
1359| ဦးစောအောင်ငေွ | အမျိုးသားဒီမိုကရေစီ အဖွဲ့ချုပ်| 4846| N	1359|  U SAW AUNG NGWE | National League for Democracy | 4846| N
1362| ဦးမန်းတင်ရီ | တိုင်းရင်းသား စည်းလုံးညီညွတ်ရေးပါတီ| 3290| N	1362|  U MANN TIN YI | National Unity Party (NUP)| 3290| N
 Kayin-5
1364| ဦးစောထွန်းမြအောင် | ပြည်ထောင်စုကြံ့ခိုင်ရေးနှင့် ဖွံ့ဖြိုးရေးပါတီ| 2752|N	1364| U SAW TUN MYA AUNG | Union Solidarity And Development Party| 2752| N
1369|  ဦးစောမောင်ချစ် | တိုင်းရင်းသား စည်းလုံးညီညွတ်ရေးပါတီ| 775| N	1369| U SAW MAUNG CHIT | National Unity Party (NUP)| 775| N
 Kayin-6
1370| ဒေါ်နန်းနီနီအေး | ပြည်ထောင်စုကြံ့ခိုင်ရေးနှင့် ဖွံ့ဖြိုးရေးပါတီ| 2397| N	1370|  DAW NAN NI NI AYE | Union Solidarity And Development Party| 2397| N
1371| ဦးစောတင်မောင်လွင် | တိုင်းရင်းသား စည်းလုံးညီညွတ်ရေးပါတီ| 2197| N	1371| U SAW TIN MAUNG LWIN| National Unity Party (NUP)| 2197| N
 Kayin-7
577| ဦးစောတော်ပုလဲ| ကရင်ပြည်သူ့ပါတီ| 12374| N	577| U SAW TAW PALE| Kayin People’s Party| 12374| N
1372| ဦးစောမာဘယ် | ပြည်ထောင်စုကြံ့ခိုင်ရေးနှင့် ဖွံ့ဖြိုးရေးပါတီ| 7140| N	1372| U SAW MARBEL | Union Solidarity And Development Party| 7140| N
 Kayin-8
1373| ဦးစောအေးမြိုင် | ပြည်ထောင်စုကြံ့ခိုင်ရေးနှင့် ဖွံ့ဖြိုးရေးပါတီ| 0| Y	1373|  U SAW AYE MYAING | Union Solidarity And Development Party| 0| Y
 Kayin-9
1374| ဦးအောင်မြင့်သိန်း | ပြည်ထောင်စုကြံ့ခိုင်ရေးနှင့် ဖွံ့ဖြိုးရေးပါတီ|15360| N	1374|  U AUNG MYINT THEIN | Union Solidarity And Development Party| 15360| N
1375| ဦးစောကျော်လွင် | တိုင်းရင်းသား စည်းလုံးညီညွတ်ရေးပါတီ| 12957| N	1375|  U SAW KYAW LWIN | National Unity Party (NUP)| 12957| N
 Kayin-10
767| မင်းမျိုးတင့်လွင်| မွန်ဒေသလုံးဆိုင်ရာဒီမိုကရေစီပါတီ| 10913| N	767| Min Myo Tint Lwin| All Mon Region Democracy Party| 10913| N
1377| ဦးဝင်းနိုင် | ပြည်ထောင်စုကြံ့ခိုင်ရေးနှင့် ဖွံ့ဖြိုးရေးပါတီ| 7361| N	1377|  U WIN NAING | Union Solidarity And Development Party| 7361| N
1378| ဦးအောင်မြိုင် | တိုင်းရင်းသား စည်းလုံးညီညွတ်ရေးပါတီ| 5440| N	1378|  U AUNG MYAING | National Unity Party (NUP)| 5440| N
 Kayin-11
1380| ဦးစောမြဝင်း | ပြည်ထောင်စုကြံ့ခိုင်ရေးနှင့် ဖွံ့ဖြိုးရေးပါတီ| 0| Y	1380|  U SAW MYA WIN | Union Solidarity And Development Party| 0| Y
 Kayin-12
1382| ဦးမန်းအောင်တင်မြင့် | အမျိုးသားဒီမိုကရေစီ အဖွဲ့ချုပ်| 0| Y	1382| U MANN AUNG TIN MYINT | National League for Democracy | 0| Y
 Magway-1
953| ဦးခင်မောင်ကြည်(ခ)ဦးကျော်စိန်ဟန်- | အမျိုးသားဒီမိုကရေစီအင်အားစု| 15968| N	953| U KHIN MAUNG KYI (a) U KYAW SEIN HAN | National Democratic Force| 15968|N
1221| ဦးကြည်ထွန်း | ပြည်ထောင်စုကြံ့ခိုင်ရေးနှင့် ဖွံ့ဖြိုးရေးပါတီ| 98808| N	1221|  U KYI TUN | Union Solidarity And Development Party| 98808| N
1222| ဦးတင်ဝင်း | တိုင်းရင်းသား စည်းလုံးညီညွတ်ရေးပါတီ| 11403| N	1222|  U TIN WIN | National Unity Party (NUP)| 11403| N
1223| ဦးအောင်လင်းဦး | ပြည်ထောင်စုမြန်မာနိုင်ငံ အမျိုးသားနိုင်ငံရေးအဖွဲ့ချုပ်|8968| N	1223|  U AUNG LIN OO | Union Of Myanmar Federation Of National Politics| 8968|N
 Magway-2
357| ဦးအောင်ငြိမ်း| ပြည်ထောင်စုကြံ့ခိုင်ရေးနှင့် ဖွံ့ဖြိုးရေးပါတီ| 103788| N	357| U AUNG NYEIN| Union Solidarity And Development Party| 103788| N
954| ဦးမြင့်ငေွ| အမျိုးသားဒီမိုကရေစီအင်အားစု| 49433| N	954| U Myint Ngwe| National Democratic Force| 49433| N
1224| ဦးဘသန်း | တိုင်းရင်းသား စည်းလုံးညီညွတ်ရေးပါတီ| 30897| N	1224| U BA THAN | National Unity Party (NUP)| 30897| N
 Magway-3
955| ဦးချစ်ကိုကို| အမျိုးသားဒီမိုကရေစီအင်အားစု| 32833| N	955| U Chit Ko Ko| National Democratic Force| 32833| N
1225| ဦးလှသိန်း | ပြည်ထောင်စုကြံ့ခိုင်ရေးနှင့် ဖွံ့ဖြိုးရေးပါတီ| 11150| N	1225|  U HLA THEIN | Union Solidarity And Development Party| 11150| N
1226| ဦးကျော်သန်း | တိုင်းရင်းသား စည်းလုံးညီညွတ်ရေးပါတီ| 39788| N	1226|  U KYAW THAN | National Unity Party (NUP)| 39788| N
 Magway-4
373| ဦးဌေးငေွ| ပြည်ထောင်စုမြန်မာနိုင်ငံ အမျိုးသားနိုင်ငံရေးအဖွဲ့ချုပ်| 3672|N	373| U HTAY NGWE| Union Of Myanmar Federation Of National Politics| 3672| N
615| ဥ၊ီးအောင်သန်းတင်|  အမျိုးသားနိုင်ငံရေးမဟာမိတ်များအဖွဲ့ချုပ်| 2826| N	615| U AUNG THAN TINT| National Political Alliances League| 2826| N
956| ဦးစိုးမြင့်| အမျိုးသားဒီမိုကရေစီအင်အားစု| 112455| N	956| U Soe Myint| National Democratic Force| 112455| N
1227| ဦးခင်ဇော် | ပြည်ထောင်စုကြံ့ခိုင်ရေးနှင့် ဖွံ့ဖြိုးရေးပါတီ| 79142| N	1227|  U KHIN ZAW | Union Solidarity And Development Party| 79142| N
1228| ဦးအောင်ခန့် | တိုင်းရင်းသား စည်းလုံးညီညွတ်ရေးပါတီ| 27396| N	1228|  U AUNG KHANT | National Unity Party (NUP)| 27396| N
 Magway-5
1229| ဦးကျော်သူဦး | ပြည်ထောင်စုကြံ့ခိုင်ရေးနှင့် ဖွံ့ဖြိုးရေးပါတီ| 132038| N	1229|  U KYAW THU OO | Union Solidarity And Development Party| 132038| N
1230| ဦးခင်လှုိင် | တိုင်းရင်းသား စည်းလုံးညီညွတ်ရေးပါတီ| 52737| N	1230|  U KHIN HLAING | National Unity Party (NUP)| 52737| N
 Magway-6
1231| ဦးစိုးမြင့် | ပြည်ထောင်စုကြံ့ခိုင်ရေးနှင့် ဖွံ့ဖြိုးရေးပါတီ| 112455| N	1231| U SOE MYINT | Union Solidarity And Development Party| 112455| N
1232| ဦးဌေးအောင် | တိုင်းရင်းသား စည်းလုံးညီညွတ်ရေးပါတီ| 64053| N	1232|  U HTAY AUNG | National Unity Party (NUP)| 64053| N
 Magway-7
1233|  ဦးသန်းဆေွ | ပြည်ထောင်စုကြံ့ခိုင်ရေးနှင့် ဖွံ့ဖြိုးရေးပါတီ| 155693| N	1233|  U THAN SWE | Union Solidarity And Development Party| 155693| N
1234| ဦးကျော်ဝင်း | တိုင်းရင်းသား စည်းလုံးညီညွတ်ရေးပါတီ| 74254| N	1234|  U KYAW WIN | National Unity Party (NUP)| 74254| N
 Magway-8
1235| ဦးတင်ဝင်း | ပြည်ထောင်စုကြံ့ခိုင်ရေးနှင့် ဖွံ့ဖြိုးရေးပါတီ| 139344| N	1235|  U TIN WIN | Union Solidarity And Development Party| 139344| N
1236| ဦးကျော်ဝင်း | တိုင်းရင်းသား စည်းလုံးညီညွတ်ရေးပါတီ| 57391| N	1236|  U KYAW WIN | National Unity Party (NUP)| 57391| N
 Magway-9
374| ဦးကြင်ဝမ်း| ပြည်ထောင်စုမြန်မာနိုင်ငံ အမျိုးသားနိုင်ငံရေးအဖွဲ့ချုပ်|26781| N	374| U KYIN WUN| Union Of Myanmar Federation Of National Politics| 26781| N
1237| ဦးသော်ဇင်ဦး | ပြည်ထောင်စုကြံ့ခိုင်ရေးနှင့် ဖွံ့ဖြိုးရေးပါတီ| 122734| N	1237|  U THAW ZIN OO | Union Solidarity And Development Party| 122734| N
1238| ဦးရဲညွန့် | တိုင်းရင်းသား စည်းလုံးညီညွတ်ရေးပါတီ| 56558| N	1238|  U YE NYUNT | National Unity Party (NUP)| 56558| N
 Magway-10
375| ဦးအောင်ဝင်း| ပြည်ထောင်စုမြန်မာနိုင်ငံ အမျိုးသားနိုင်ငံရေးအဖွဲ့ချုပ်|17844| N	375| U AUNG WIN| Union Of Myanmar Federation Of National Politics| 17844| N
1239| ဦးအောင်သန်း | ပြည်ထောင်စုကြံ့ခိုင်ရေးနှင့် ဖွံ့ဖြိုးရေးပါတီ| 96855| N	1239|  U AUNG THAN | Union Solidarity And Development Party| 96855| N
1240| ဦးမြင့် | တိုင်းရင်းသား စည်းလုံးညီညွတ်ရေးပါတီ| 18012| N	1240|  U MYINT | National Unity Party (NUP)| 18012| N
 Magway-11
376| ဦးဌေးနိုင်| ပြည်ထောင်စုမြန်မာနိုင်ငံ အမျိုးသားနိုင်ငံရေးအဖွဲ့ချုပ်|24115| N	376| U HTAY NAING| Union Of Myanmar Federation Of National Politics| 24115| N
1241| ဦးအောင်ထွန်း | ပြည်ထောင်စုကြံ့ခိုင်ရေးနှင့် ဖွံ့ဖြိုးရေးပါတီ| 162959| N	1241|  U AUNG TUN | Union Solidarity And Development Party| 162959| N
1242| ဦးလှညွန့် | တိုင်းရင်းသား စည်းလုံးညီညွတ်ရေးပါတီ| 28059| N	1242| U HLA NYUNT | National Unity Party (NUP)| 28059| N
 Magway-12
377| ဦးအောင်ဝင်း| ပြည်ထောင်စုမြန်မာနိုင်ငံ အမျိုးသားနိုင်ငံရေးအဖွဲ့ချုပ်|20077| N	377| U AUNG WIN| Union Of Myanmar Federation Of National Politics| 20077| N
958| ဦးစိုးမြင့်သန်း| အမျိုးသားဒီမိုကရေစီအင်အားစု| 29343| N	958| U Soe Myint Than| National Democratic Force| 29343| N
1243| ဦးလှဆေွ | ပြည်ထောင်စုကြံ့ခိုင်ရေးနှင့် ဖွံ့ဖြိုးရေးပါတီ| 63900| N	1243| U HLA SWE | Union Solidarity And Development Party| 63900| N
1244| ဦးအံ့မောင် | တိုင်းရင်းသား စည်းလုံးညီညွတ်ရေးပါတီ| 28609| N	1244|  U ANT MAUNG | National Unity Party (NUP)| 28609| N
 Mandalay-1
548| ဒေါက်တာတင်မောင်ထွန်း| ဒီမိုကရက်တစ်ပါတီ(မြန်မာ)| 17623| N	548| DR. TIN MAUNG TUN| Democratic Party (Myanmar)| 17623| N
1123| ဒေါက်တာစိုးထွန်း| ပြည်ထောင်စုကြံ့ခိုင်ရေးနှင့် ဖွံ့ဖြိုးရေးပါတီ| 120418|N	1123| Dr. Soe Tun| Union Solidarity And Development Party| 120418| N
920| ဦးတင်အောင်အောင် | အမျိုးသားဒီမိုကရေစီအင်အားစု| 82815| N	920| U TIN AUNG AUNG | National Democratic Force| 82815| N
1122| ဦးမြင့်သိန်း| တိုင်းရင်းသား စည်းလုံးညီညွတ်ရေးပါတီ| 37482| N	1122| U Myint Thein| National Unity Party (NUP)| 37482| N
 Mandalay-2
32| ဒေါ်သန်းသန်းနု| ဒီမိုကရက်တစ်ပါတီ(မြန်မာ)| 14008| N	32| DAW THAN THAN NU| Democratic Party (Myanmar)| 14008| N
144| ဦးအေသွင်(ခ)ဦးအောင်ခိုင်စိုး|၈၈မျိုးဆက်ကျောင်းသားလူငယ်များ(ပြည်ထောင်စုမြန်မာနိုင်ငံ)| 26805| N	144| U AYE THWIN (a) U AUNG KHINE SOE| 88 Generation Student Youths (Union Of Myanmar)| 26805| N
1125| ဒေါ်ခင်မေစီ| တိုင်းရင်းသား စည်းလုံးညီညွတ်ရေးပါတီ| 56089| N	1125| Daw Khin May Si| National Unity Party (NUP)| 56089| N
1124| ဦးဝင်းမောင်| ပြည်ထောင်စုကြံ့ခိုင်ရေးနှင့် ဖွံ့ဖြိုးရေးပါတီ| 136337| N	1124| U Win Maung| Union Solidarity And Development Party| 136337| N
921| ဒေါက်တာလှစိုးညွန့် | အမျိုးသားဒီမိုကရေစီအင်အားစု| 94356| N	921| DR. HLA SOE NYUNT| National Democratic Force| 94356| N
 Mandalay-3
1127| ဦးကမ်ကိုကြီး | တိုင်းရင်းသား စည်းလုံးညီညွတ်ရေးပါတီ| 131225| N	1127| U KHAM KO GYEE| National Unity Party (NUP)| 131225| N
1126| ဦးတင်မောင်ဝင်း | ပြည်ထောင်စုကြံ့ခိုင်ရေးနှင့် ဖွံ့ဖြိုးရေးပါတီ| 237035|N	1126| U TIN MAUNG WIN| Union Solidarity And Development Party| 237035| N
 Mandalay-4
1129| ဦးတင်ညွန့်| တိုင်းရင်းသား စည်းလုံးညီညွတ်ရေးပါတီ| 33686| N	1129| U TIN NYUNT| National Unity Party (NUP)| 33686| N
1128| ဦးဝင်းမောင်| ပြည်ထောင်စုကြံ့ခိုင်ရေးနှင့် ဖွံ့ဖြိုးရေးပါတီ| 307722| N	1128| U WIN MAUNG| Union Solidarity And Development Party| 307722| N
923| ဦးခင်မောင်ဝင်း | အမျိုးသားဒီမိုကရေစီအင်အားစု| 58680| N	923| U KHIN MAUNG WIN| National Democratic Force| 58680| N
 Mandalay-5
1131| ဦးအောင်သန်း| တိုင်းရင်းသား စည်းလုံးညီညွတ်ရေးပါတီ| 30573| N	1131| U AUNG THAN| National Unity Party (NUP)| 30573| N
549| ဦးစိန်ဝင်း| ဒီမိုကရက်တစ်ပါတီ(မြန်မာ)| 16362| N	549| U SEIN WIN | Democratic Party (Myanmar)| 16362| N
1130| ဦးဇော်မြင့်ဖေ| ပြည်ထောင်စုကြံ့ခိုင်ရေးနှင့် ဖွံ့ဖြိုးရေးပါတီ| 221611| N	1130| U ZAW MYINT PE| Union Solidarity And Development Party| 221611| N
924| ဦးအောင်ငေွ | အမျိုးသားဒီမိုကရေစီအင်အားစု| 23667| N	924| U AUNG NGWE| National Democratic Force| 23667| N
 Mandalay-6
1133| ဦးဌေးလွင် | တိုင်းရင်းသား စည်းလုံးညီညွတ်ရေးပါတီ| 43939| N	1133| U HTAY LWIN| National Unity Party (NUP)| 43939| N
1132| ဦးမျိုးမြင့်| ပြည်ထောင်စုကြံ့ခိုင်ရေးနှင့် ဖွံ့ဖြိုးရေးပါတီ| 235404| N	1132| U MYO MYINT| Union Solidarity And Development Party| 235404| N
 Mandalay-7
1135| ဦးကျော်ဟိန်း| တိုင်းရင်းသား စည်းလုံးညီညွတ်ရေးပါတီ| 21820| N	1135| U KYAW HEIN| National Unity Party (NUP)| 21820| N
1134| ဦးအေး| ပြည်ထောင်စုကြံ့ခိုင်ရေးနှင့် ဖွံ့ဖြိုးရေးပါတီ| 70711| N	1134| U AYE| Union Solidarity And Development Party| 70711| N
922| ဦးမောင်မောင်လှသောင်း | အမျိုးသားဒီမိုကရေစီအင်အားစု| 24177| N	922| U MAUNG MAUNG HLA THAUNG | National Democratic Force| 24177| N
 Mandalay-8
1137| ဦးလှအောင် | တိုင်းရင်းသား စည်းလုံးညီညွတ်ရေးပါတီ| 34278| N	1137|  U HLA AUNG| National Unity Party (NUP)| 34278| N
1136| ဦးခင်အောင်မြင့်| ပြည်ထောင်စုကြံ့ခိုင်ရေးနှင့် ဖွံ့ဖြိုးရေးပါတီ| 238397|N	1136| U KHIN AUNG MYINT| Union Solidarity And Development Party| 238397| N
925|  ဦးနေမင်းကျော်| အမျိုးသားဒီမိုကရေစီအင်အားစု| 17905| N	925| U NAY MIN KYAW| National Democratic Force| 17905| N
 Mandalay-9
1138| ဦးမှတ်ကြီး| ပြည်ထောင်စုကြံ့ခိုင်ရေးနှင့် ဖွံ့ဖြိုးရေးပါတီ| 155561| N	1138| U HMAT KYEE| Union Solidarity And Development Party| 155561| N
378| ဦးရန်အောင်မင်း| ပြည်ထောင်စုမြန်မာနိုင်ငံ အမျိုးသားနိုင်ငံရေးအဖွဲ့ချုပ်|19284| N	378| U YAN AUNG MIN| Union Of Myanmar Federation Of National Politics| 19284|N
473| ဦးစိုးတင့်အောင်| တိုင်းရင်းသား စည်းလုံးညီညွတ်ရေးပါတီ| 46650| N	473| U SOE TINT AUNG| National Unity Party (NUP)| 46650| N
 Mandalay-10
1139| ဦးခင်မောင်ဌေး| ပြည်ထောင်စုကြံ့ခိုင်ရေးနှင့် ဖွံ့ဖြိုးရေးပါတီ| 307279| N	1139| U KHIN MAUNG HTAY| Union Solidarity And Development Party| 307279| N
379| ဦးအောင်ဇော်ဦး| ပြည်ထောင်စုမြန်မာနိုင်ငံ အမျိုးသားနိုင်ငံရေးအဖွဲ့ချုပ်|12465| N	379| U AUNG ZAW OO| Union Of Myanmar Federation Of National Politics| 12465| N
474| ဦးမြင့်ဦး| တိုင်းရင်းသား စည်းလုံးညီညွတ်ရေးပါတီ| 31053| N	474| U MYINT OO| National Unity Party (NUP)| 31053| N
 Mandalay-11
343| ဦးစိုးအောင်| ပြည်ထောင်စုကြံ့ခိုင်ရေးနှင့် ဖွံ့ဖြိုးရေးပါတီ| 177639| N	343| U SOE AUNG| Union Solidarity And Development Party| 177639| N
475| ဦးအောင်ဆန်း| တိုင်းရင်းသား စည်းလုံးညီညွတ်ရေးပါတီ| 29183| N	475| U AUNG SAN| National Unity Party (NUP)| 29183| N
926| ဦးစိန်ဝင်း | အမျိုးသားဒီမိုကရေစီအင်အားစု| 27102| N	926| U SEIN WIN| National Democratic Force| 27102| N
 Mandalay-12
344| ဦးဌေးမောင်| ပြည်ထောင်စုကြံ့ခိုင်ရေးနှင့် ဖွံ့ဖြိုးရေးပါတီ| 148593| N	344| U HTAY MAUNG| Union Solidarity And Development Party| 148593| N
476| ဦးကျော်အေး| တိုင်းရင်းသား စည်းလုံးညီညွတ်ရေးပါတီ| 41816| N	476| U KYAW AYE| National Unity Party (NUP)| 41816| N
927| ဦးညီပု | အမျိုးသားဒီမိုကရေစီအင်အားစု| 36906| N	927| U NYI PU| National Democratic Force| 36906| N
 Mon-1
762| နိုင်အောင်ချမ်း| မွန်ဒေသလုံးဆိုင်ရာဒီမိုကရေစီပါတီ| 13954| N	762| Naing Aung Chan| All Mon Region Democracy Party| 13954| N
1390| ဒေါ်ရီရီမြင့် | ပြည်ထောင်စုကြံ့ခိုင်ရေးနှင့် ဖွံ့ဖြိုးရေးပါတီ| 21584| N	1390|  DAW YI YI MYINT | Union Solidarity And Development Party| 21584| N
1392| ဦးဟန်ရင်| တိုင်းရင်းသား စည်းလုံးညီညွတ်ရေးပါတီ| 10942| N	1392|  U HAN YIN | National Unity Party (NUP)| 10942| N
 Mon-2
763| ဦးခင်မောင်| မွန်ဒေသလုံးဆိုင်ရာဒီမိုကရေစီပါတီ| 11820| N	763| U Khin Maung | All Mon Region Democracy Party| 11820| N
1393| ဒေါက်တာစိုးဝင်း | ပြည်ထောင်စုကြံ့ခိုင်ရေးနှင့် ဖွံ့ဖြိုးရေးပါတီ| 25326|N	1393|  DR. SOE WIN | Union Solidarity And Development Party| 25326| N
1394| ဦးမြဟန် | တိုင်းရင်းသား စည်းလုံးညီညွတ်ရေးပါတီ| 11451| N	1394|  U MYA HAN | National Unity Party (NUP)| 11451| N
 Mon-3
108| နိုင်လှအောင်| မွန်ဒေသလုံးဆိုင်ရာဒီမိုကရေစီပါတီ| 17555| N	108| Nai Hla Aung| All Mon Region Democracy Party| 17555| N
559| ဦးအုန်းဖေ| ဒီမိုကရက်တစ်ပါတီ(မြန်မာ)| 5222| N	559| U OHN PE| Democratic Party (Myanmar)| 5222| N
1396| ဦးမင်းလွန်းအောင် | ပြည်ထောင်စုကြံ့ခိုင်ရေးနှင့် ဖွံ့ဖြိုးရေးပါတီ| 20264|N	1396|  U MIN LUN AUNG | Union Solidarity And Development Party| 20264| N
1397| ဦးသိန်းမြင့်(၂) | တိုင်းရင်းသား စည်းလုံးညီညွတ်ရေးပါတီ| 20264| N	1397|  U THEIN MYINT (2)| National Unity Party (NUP)| 20264| N
 Mon-4
764| ဦးကျော်သိန်း | မွန်ဒေသလုံးဆိုင်ရာဒီမိုကရေစီပါတီ| 23750| N	764| U Kyaw Thein| All Mon Region Democracy Party| 23750| N
1399| ဒေါက်တာဉာဏ်ဇော် | ပြည်ထောင်စုကြံ့ခိုင်ရေးနှင့် ဖွံ့ဖြိုးရေးပါတီ| 18984|N	1399| DR. NYAN ZAW | Union Solidarity And Development Party| 18984| N
1400| ဦးစံသောင်း | တိုင်းရင်းသား စည်းလုံးညီညွတ်ရေးပါတီ| 6935| N	1400| U SAN THAUNG | National Unity Party (NUP)| 6935| N
 Mon-5
765| ဦးနိုင်ထွန်းအုံ| မွန်ဒေသလုံးဆိုင်ရာဒီမိုကရေစီပါတီ| 13439| N	765| U NAING TUN OHN| All Mon Region Democracy Party| 13439| N
1401| ဦးသန်းထွန်း | ပြည်ထောင်စုကြံ့ခိုင်ရေးနှင့် ဖွံ့ဖြိုးရေးပါတီ| 10187| N	1401| U THAN TUN | Union Solidarity And Development Party| 10187| N
1403| ဦးတင်ထွန်း | တိုင်းရင်းသား စည်းလုံးညီညွတ်ရေးပါတီ| 7818| N	1403|  U TIN TUN | National Unity Party (NUP)| 7818| N
 Mon-6
761| နိုင်ကွန်ချမ်း| မွန်ဒေသလုံးဆိုင်ရာဒီမိုကရေစီပါတီ| 26066| N	761| Naing Kung Chan| All Mon Region Democracy Party| 26066| N
1404| \- ဦးလှသိန်း(ခ)ဒေါက်တာလှသိန်း | ပြည်ထောင်စုကြံ့ခိုင်ရေးနှင့် ဖွံ့ဖြိုးရေးပါတီ| 29018| N	1404| U HLA THEIN (a) DR. HLA THEIN | Union Solidarity And Development Party|29018| N
1405| ဦးဘရှိန် | တိုင်းရင်းသား စည်းလုံးညီညွတ်ရေးပါတီ| 5651| N	1405|  U BA SHEIN | National Unity Party (NUP)| 5651| N
 Mon-7
111| နိုင်ဗညားအောင်မိုး | မွန်ဒေသလုံးဆိုင်ရာဒီမိုကရေစီပါတီ| 33963| N	111| (Dr.) Banya Aung Moe| All Mon Region Democracy Party| 33963| N
1407| ဦးထွန်းမြင့် | ပြည်ထောင်စုကြံ့ခိုင်ရေးနှင့် ဖွံ့ဖြိုးရေးပါတီ| 15349| N	1407|  U TUN MYINT | Union Solidarity And Development Party| 15349| N
1408|  ဦးဖေသောင်း | တိုင်းရင်းသား စည်းလုံးညီညွတ်ရေးပါတီ| 7034| N	1408|  U PE THAUNG | National Unity Party (NUP)| 7034| N
 Mon-8
1409| ဦးခွန်တင်ဝင်း | ပြည်ထောင်စုကြံ့ခိုင်ရေးနှင့် ဖွံ့ဖြိုးရေးပါတီ| 14735| N	1409| U KHUN TIN WIN | Union Solidarity And Development Party| 14735| N
1410| ဦးစောသောင်းဖေ | တိုင်းရင်းသား စည်းလုံးညီညွတ်ရေးပါတီ| 16627| N	1410| U SAW THAUNG PE | National Unity Party (NUP)| 16627| N
 Mon-9
1411| ဦးစောအုန်း| ပြည်ထောင်စုကြံ့ခိုင်ရေးနှင့် ဖွံ့ဖြိုးရေးပါတီ| 19702| N	1411| U SAW OHN| Union Solidarity And Development Party| 19702| N
1412| ဦးသောင်းရေွှ | တိုင်းရင်းသား စည်းလုံးညီညွတ်ရေးပါတီ| 19177| N	1412|  U THAUNG SHWE| National Unity Party (NUP)| 19177| N
 Mon-10
766| နိုင်ခင်မောင် | မွန်ဒေသလုံးဆိုင်ရာဒီမိုကရေစီပါတီ| 21346| N	766| Naing Khin Maung| All Mon Region Democracy Party| 21346| N
1413| ဦးဇော်ဝင်း | ပြည်ထောင်စုကြံ့ခိုင်ရေးနှင့် ဖွံ့ဖြိုးရေးပါတီ| 24897| N	1413|  U ZAW WIN | Union Solidarity And Development Party| 24897| N
1414| ဦးအေးလိှုင် | တိုင်းရင်းသား စည်းလုံးညီညွတ်ရေးပါတီ| 23533| N	1414|  U AYE HLAING | National Unity Party (NUP)| 23533| N
 Mon-11
579| ဦးတင်လှ| ကရင်ပြည်သူ့ပါတီ| 1927| N	579| U TIN HLA| Kayin People’s Party| 1927| N
1416| ဦးညီညီထွန်း | ပြည်ထောင်စုကြံ့ခိုင်ရေးနှင့် ဖွံ့ဖြိုးရေးပါတီ| 27302| N	1416|  U NYI NYI TUN| Union Solidarity And Development Party| 27302| N
1418| ဦးအေးကျော် | တိုင်းရင်းသား စည်းလုံးညီညွတ်ရေးပါတီ| 21321| N	1418| U AYE KYAW | National Unity Party (NUP)| 21321| N
 Mon-12
1420| ဦးဇော်နိုင်ဦး | ပြည်ထောင်စုကြံ့ခိုင်ရေးနှင့် ဖွံ့ဖြိုးရေးပါတီ| 25600| N	1420| U ZAW NAING OO | Union Solidarity And Development Party| 25600| N
1421| ဦးခင်မြင့် | တိုင်းရင်းသား စည်းလုံးညီညွတ်ရေးပါတီ| 23552| N	1421|  U KHIN MYINT | National Unity Party (NUP)| 23552| N
 Rakhine-1
726| ုဦးမောင်မောင်တင်| အမျိုးသားဖွံ့ဖြိုးတိုးတက်ရေး ဒီမိုကရက်တစ်ပါတီ| 24583|N	726| U MAUNG MAUNG TIN| National Democratic Party For Development| 24583| N
840| ဦးလှတိုး|  ကမန်အမျိုးသား တိုးတက်ရေးပါတီ| 3969| N	840| U HLA TOE|  Kaman National Progressive Party| 3969| N
855| ဒေါက်တာဦးအေးမောင်|  ရခိုင်တိုင်းရင်းသားများတိုးတက်ရေးပါတီ| 40164| N	855| Dr. U AYE MAUNG| Rakhine Nationals Development Party| 40164| N
1281| ဒေါက်တာချမ်းသာ | ပြည်ထောင်စုကြံ့ခိုင်ရေးနှင့် ဖွံ့ဖြိုးရေးပါတီ| 21757| N	1281| DR. CHAN THA | Union Solidarity And Development Party| 21757| N
1283| ဦးထွန်းဦးကျော် | တိုင်းရင်းသား စည်းလုံးညီညွတ်ရေးပါတီ| 2896| N	1283| U TUN OO KYAW | National Unity Party (NUP)| 2896| N
 Rakhine-2
1284| ဦးလှသာထွန်း | ပြည်ထောင်စုကြံ့ခိုင်ရေးနှင့် ဖွံ့ဖြိုးရေးပါတီ| 16350| N	1284|  U HLA THA TUN | Union Solidarity And Development Party| 16350| N
1285| ဦးအောင်ထွန်းညို | တိုင်းရင်းသား စည်းလုံးညီညွတ်ရေးပါတီ| 7657| N	1285|  U AUNG TUN NYO | National Unity Party (NUP)| 7657| N
1286| ဦးကျော်ကျော် |  ရခိုင်တိုင်းရင်းသားများတိုးတက်ရေးပါတီ| 45002| N	1286| U KYAW KYAW | Rakhine Nationals Development Party| 45002| N
1287| ဦးစိန်လှကျော် |  ခမီ အမျိုးသားဖွံ့ဖြိုးတိုးတက်ရေးပါတီ| 6769| N	1287|  U SEIN HLA KYAW | Khami National Development Party| 6769| N
1289| ဦးကျော်ဇောလှ | မြန်မာနိုင်ငံ ရခိုင်ပြည်နယ်အမျိုးသားအင်အားစုပါတီ| 2757| N	1289| U KYAW ZAW HLA | Rakhine State National Force Of Myanmar| 2757| N
 Rakhine-3
729| ဦးမောင်မောင်လေး | အမျိုးသားဖွံ့ဖြိုးတိုးတက်ရေး ဒီမိုကရက်တစ်ပါတီ| 14978|N	729| U MAUNG MAUNG LAY| National Democratic Party For Development| 14978| N
1292| ဦးကျော်ရင်| ပြည်ထောင်စုကြံ့ခိုင်ရေးနှင့် ဖွံ့ဖြိုးရေးပါတီ| 12757| N	1292|  U KYAW YIN | Union Solidarity And Development Party| 12757| N
1293| ဦးထွန်းလင်း | တိုင်းရင်းသား စည်းလုံးညီညွတ်ရေးပါတီ| 9718| N	1293|  U TUN LINN| National Unity Party (NUP)| 9718| N
1295| ဦးခင်မောင်(ခ)အောင်ကျော်ဦး |  ရခိုင်တိုင်းရင်းသားများတိုးတက်ရေးပါတီ|41057| N	1295|  U KHIN MAUNG (a) AUNG KYAW OO | Rakhine Nationals Development Party|41057| N
1296| ဦးမြင့်ဇော် | မြန်မာနိုင်ငံ ရခိုင်ပြည်နယ်အမျိုးသားအင်အားစုပါတီ| 3794| N	1296| U MYINT ZAW | Rakhine State National Force Of Myanmar| 3794| N
1297| ဦးစံသာအောင် | မြို (ခေါ်) ခမီ အမျိုးသားညီညွတ်ရေးအဖွဲ့| 9995| N	1297|  U SAN THAR AUNG | Mro Or Khami National Solidarity Organization
 Rakhine-4
857| ဦးစောဖြူ|  ရခိုင်တိုင်းရင်းသားများတိုးတက်ရေးပါတီ| 29806| N	857| U SAW PYU| Rakhine Nationals Development Party| 29806| N
1298|  ဦးဦးလှမြင့်(ခ)ဦးဦးလှအေး | ပြည်ထောင်စုကြံ့ခိုင်ရေးနှင့် ဖွံ့ဖြိုးရေးပါတီ| 16742| N	1298|  U OO HLA MYINT (a) U OO HLA AYE | Union Solidarity And Development | 16742| N
1299| ဦးမောင်သိ်န်းကျော် | တိုင်းရင်းသား စည်းလုံးညီညွတ်ရေးပါတီ| 8999| N	1299|  U MAUNG THEIN KYAW | National Unity Party (NUP)| 8999| N
 Rakhine-5
860| ဦးကျော်ထွန်းအောင်|  ရခိုင်တိုင်းရင်းသားများတိုးတက်ရေးပါတီ| 44736| N	860| U KYAW TUN AUNG| Rakhine Nationals Development Party| 44736| N
1301| ဦးဦးစောလှ | ပြည်ထောင်စုကြံ့ခိုင်ရေးနှင့် ဖွံ့ဖြိုးရေးပါတီ| 22282| N			1301| U OO SAW HLA | Union Solidarity And Development Party| 22282| N
1302| ဦးစောလှဖြူ | တိုင်းရင်းသား စည်းလုံးညီညွတ်ရေးပါတီ| 10458| N	1302| U SAW HLA PRU | National Unity Party (NUP)| 10458| N
 Rakhine-6
856| ဦးခင်မောင်လတ်|  ရခိုင်တိုင်းရင်းသားများတိုးတက်ရေးပါတီ| 57405| N	856| U KHIN MAUNG LATT| Rakhine Nationals Development Party| 57405| N
1304| ဦးအောင်ဇံဝေ | ပြည်ထောင်စုကြံ့ခိုင်ရေးနှင့် ဖွံ့ဖြိုးရေးပါတီ| 26661| N	1304|  U AUNG ZAN WAI| Union Solidarity And Development Party| 26661| N
1305| ဦးတလိုင်းရေှ | တိုင်းရင်းသား စည်းလုံးညီညွတ်ရေးပါတီ| 14149| N	1305|  U TALAI SHAY | National Unity Party (NUP)| 14149| N
1307| ဦးမောင်သာထွန်း |  ခမီ အမျိုးသားဖွံ့ဖြိုးတိုးတက်ရေးပါတီ| 3710| N	1307|  U MAUNG THAR TUN | Khami National Development Party| 3710| N
7
719| ဦးစိုးဝင်း| အမျိုးသားဖွံ့ဖြိုးတိုးတက်ရေး ဒီမိုကရက်တစ်ပါတီ| 719| U SOE WIN| National Democratic Party For Development| 38699| N
1309| ဦးဇာယာဒ်ရော်မံ(ခ)ဦးဌေးဝင်း | ပြည်ထောင်စုကြံ့ခိုင်ရေးနှင့် ဖွံ့ဖြိုးရေးပါတီ| 72177| N	1309|  U HTAY WIN | Union Solidarity And Development Party| 72177| N
1310| ဦးဘသိန်း | တိုင်းရင်းသား စည်းလုံးညီညွတ်ရေးပါတီ| 2079| N	1310| U BA THEIN | National Unity Party (NUP)| 2079| N
 Rakhine-8
720| ဦးတောယုဘေဒန်| အမျိုးသားဖွံ့ဖြိုးတိုးတက်ရေး ဒီမိုကရက်တစ်ပါတီ| 30887| N	720| U TAW YU BAYDEIN| National Democratic Party For Development| 30887| N
1312| ဦးမောင်သာခင် | ပြည်ထောင်စုကြံ့ခိုင်ရေးနှင့် ဖွံ့ဖြိုးရေးပါတီ| 64564| N	1312| U MAUNG THAR KHIN | Union Solidarity And Development Party| 64564| N
1314| ဦးဖေါယေါ်ဇူလ်ဟောက် |  ညီညွတ်သောဒီမိုကရက်တစ်ပါတီ ( ကချင်ပြည်) | 1396| N	1314| U FARUL ZULHAK | United Democratic Party - Kachin State| 1396| N
 Rakhine-9
724| ဥိးမူစတာဖာ ခါမီ| အမျိုးသားဖွံ့ဖြိုးတိုးတက်ရေး ဒီမိုကရက်တစ်ပါတီ| 44126| N	724| U MUSTAPHA KAMIL| National Democratic Party For Development| 44126| N
1315| ဦးမောင်အေးထွန်း | ပြည်ထောင်စုကြံ့ခိုင်ရေးနှင့် ဖွံ့ဖြိုးရေးပါတီ| 48120|N	1315|  U MAUNG AYE TUN | Union Solidarity And Development Party| 48120| N
1317| ဦးမောင်ကျော်ခိုင် |  ခမီ အမျိုးသားဖွံ့ဖြိုးတိုးတက်ရေးပါတီ| 10922| N	1317|  U MAUNG KYAW KHINE | Khami National Development Party| 10922| N
1319| ဦးအလီဟူစိန် |  ညီညွတ်သောဒီမိုကရက်တစ်ပါတီ ( ကချင်ပြည်) | 2740| N	1319|  U ALI HUSSEIN | United Democratic Party - Kachin State| 2740| N
1321|  ဦးထွန်းမင်း(ခ)ဦးအမ်တီယာစ်| တစ်သီးပုဂ္ဂလကိုယ်စားလှယ်လောင်းများ| 25640| N	1321| U TUN MIN (a) U AMTIYIAS| Independent Candidates| 25640| N
 Rakhine-10
861| ဦးအုန်းတင်|  ရခိုင်တိုင်းရင်းသားများတိုးတက်ရေးပါတီ| 28648| N	861| U OHN TIN| Rakhine Nationals Development Party| 28648| N
1327| ဦးအောင်တင်သိန်း | ပြည်ထောင်စုကြံ့ခိုင်ရေးနှင့် ဖွံ့ဖြိုးရေးပါတီ| 24639|N	1327|  U AUNG TIN THEIN | Union Solidarity And Development Party| 24639| N
1328| ဦးဘိုမြဦး| တိုင်းရင်းသား စည်းလုံးညီညွတ်ရေးပါတီ| 13653| N	1328| U BO MYA OO | National Unity Party (NUP)| 13653| N
 Rakhine-11
1330| ဦးညိုထွန်း | ပြည်ထောင်စုကြံ့ခိုင်ရေးနှင့် ဖွံ့ဖြိုးရေးပါတီ| 62610| N	1330|  U NYO TUN | Union Solidarity And Development Party| 62610| N
1331| ဦးအောင်ငြိမ်း | တိုင်းရင်းသား စည်းလုံးညီညွတ်ရေးပါတီ| 7752| N	1331|  U AUNG NYEIN | National Unity Party (NUP)| 7752| N
1333| ဦးအောင်ဘစိန် |  ရခိုင်တိုင်းရင်းသားများတိုးတက်ရေးပါတီ| 17024| N	1333|  U AUNG BA SEIN | Rakhine Nationals Development Party| 17024| N
 Rakhine-12
292| ဦးမြင့်လှူိင်| ပြည်ထောင်စုကြံ့ခိုင်ရေးနှင့် ဖွံ့ဖြိုးရေးပါတီ| 54067| N	292| U MYINT HLAING| Union Solidarity And Development Party| 54067| N
1334| ဦးသိန်းစိုး | တိုင်းရင်းသား စည်းလုံးညီညွတ်ရေးပါတီ| 43894| N	1334|  U THEIN SOE | National Unity Party (NUP)| 43894| N
 Sagaing-1
138| ဦးအောင်ထိုက်| ၈၈မျိုးဆက်ကျောင်းသားလူငယ်များ(ပြည်ထောင်စုမြန်မာနိုင်ငံ)|26850| N	138| U AUNG HTEIT| 88 Generation Student Youths (Union Of Myanmar)| 26850| N
1168| ဦးဝင်းတင့် | ပြည်ထောင်စုကြံ့ခိုင်ရေးနှင့် ဖွံ့ဖြိုးရေးပါတီ| 146934| N	1168|  U WIN TINT| Union Solidarity And Development Party| 146934| N
1169| ဦးလှသန်း | တိုင်းရင်းသား စည်းလုံးညီညွတ်ရေးပါတီ| 46267| N	1169| U HLA THAN| National Unity Party (NUP)| 46267| N
 Sagaing-2
1170| ဒေါက်တာဘိုကြီး(ခ)ဦးအောင်ငေွ | ပြည်ထောင်စုကြံ့ခိုင်ရေးနှင့် ဖွံ့ဖြိုးရေးပါတီ| 263959| N	1170|  DR.BO GYEE (a) U AUNG NGWE| Union Solidarity And Development Party|263959| N
1171| ဦးပေါသောင် | တိုင်းရင်းသား စည်းလုံးညီညွတ်ရေးပါတီ| 66615| N	1171| U PAW THAUNG| National Unity Party (NUP)| 66615| N
 Sagaing-3
299| ၀ဏ္ဏကျော်ထင်ဦးဝင်းမြင့်| ပြည်ထောင်စုကြံ့ခိုင်ရေးနှင့် ဖွံ့ဖြိုးရေးပါတီ|212718| N	299| WANA KYAW TINT U WIN MYINT| Union Solidarity And Development Party|212718| N
1172| ဦးမောင်မောင်ဝင်း| တိုင်းရင်းသား စည်းလုံးညီညွတ်ရေးပါတီ| 65925| N	1172| U Maung Maung Win| National Unity Party (NUP)| 65925| N
 Sagaing-4
1173| ဒေါက်တာဝင်းမြင့်အောင် | ပြည်ထောင်စုကြံ့ခိုင်ရေးနှင့် ဖွံ့ဖြိုးရေးပါတီ|181381| N	1173|  DR. WIN MYINT AUNG| Union Solidarity And Development Party| 181381| N
1174| ဒေါ်အုံးခင်| တိုင်းရင်းသား စည်းလုံးညီညွတ်ရေးပါတီ| 69631| N	1174| DAW OHN KHIN| National Unity Party (NUP)| 69631| N
 Sagaing-5
1003| ဦးကျော်ငြိမ်း| အမျိုးသားဒီမိုကရေစီအင်အားစု| 24674| N	1003| U Kyaw Nyein| National Democratic Force| 24674| N
1175| ဦးကံညွန့် | ပြည်ထောင်စုကြံ့ခိုင်ရေးနှင့် ဖွံ့ဖြိုးရေးပါတီ| 239023| N	1175| U KAN NYUNT| Union Solidarity And Development Party| 239023| N
1176| ဦးကြည် | တိုင်းရင်းသား စည်းလုံးညီညွတ်ရေးပါတီ| 42733| N	1176| U KYI| National Unity Party (NUP)| 42733| N
 Sagaing-6
1177| ဦးထွန်းမြင့် | ပြည်ထောင်စုကြံ့ခိုင်ရေးနှင့် ဖွံ့ဖြိုးရေးပါတီ| 73344| N	1177|  U TUN MYINT | Union Solidarity And Development Party| 73344| N
1178| ဦးတင်မောင်လှ | တိုင်းရင်းသား စည်းလုံးညီညွတ်ရေးပါတီ| 65325| N	1178| U TIN MAUNG HLA | National Unity Party (NUP)| 65325| N
 Sagaing-7
1179| ဦးခင်မောင်အေး | ပြည်ထောင်စုကြံ့ခိုင်ရေးနှင့် ဖွံ့ဖြိုးရေးပါတီ| 103991| N	1179| U KHIN MAUNG AYE| Union Solidarity And Development Party| 103991| N
1180| ဦးအောင်မြင့် | တိုင်းရင်းသား စည်းလုံးညီညွတ်ရေးပါတီ| 68537| N	1180|  U AUNG MYINT| National Unity Party (NUP)| 68537| N
 Sagaing-8
293| ဦးသိန်းလှိုင် | ပြည်ထောင်စုကြံ့ခိုင်ရေးနှင့် ဖွံ့ဖြိုးရေးပါတီ| 102020| N	293| U THEIN HLAING | Union Solidarity And Development Party| 102020| N
460| ဦးမြဖေ| တိုင်းရင်းသား စည်းလုံးညီညွတ်ရေးပါတီ| 63003| N	460| U MYA Pae| National Unity Party (NUP)| 63003| N
715| ဦးဖူးခင်မောင်ကြီး| ချင်းတိုးတက်ရေးပါတီ| 30695| N	715| U PU KHIN MAUNG YI| Chin Progressive Party| 30695| N
 Sagaing-9
1181| ဦးသိန်းဝင်း | ပြည်ထောင်စုကြံ့ခိုင်ရေးနှင့် ဖွံ့ဖြိုးရေးပါတီ| 22247| N	1181| U THEIN WIN| Union Solidarity And Development Party| 22247| N
1182| ဦးစိုးသန်း | တိုင်းရင်းသား စည်းလုံးညီညွတ်ရေးပါတီ| 8846| N	1182| U SOE THAN | National Unity Party (NUP)| 8846| N
1183| ဦးထန်ခိုဟောက် | ချင်းတိုးတက်ရေးပါတီ| 10497| N	1183|  U HTAN KHO HAUK | Chin Progressive Party| 10497| N
 Sagaing-10
1184| ဦးရဲဝင်းဦး | ပြည်ထောင်စုကြံ့ခိုင်ရေးနှင့် ဖွံ့ဖြိုးရေးပါတီ| 34072| N	1184|  U YE WIN OO | Union Solidarity And Development Party| 34072| N
1185| \- ဦးမောင်မောင်ကြီး | တိုင်းရင်းသား စည်းလုံးညီညွတ်ရေးပါတီ| 35660| N	1185|  U MAUNG MAUNG GYEE | National Unity Party (NUP)| 35660| N
 Sagaing-11
1186|  ဦးအောင်ချစ်လွင် | ပြည်ထောင်စုကြံ့ခိုင်ရေးနှင့် ဖွံ့ဖြိုးရေးပါတီ| 31092|N	1186|  U AUNG CHIT LWIN| Union Solidarity And Development Party| 31092| N
1187| ဒေါ်သောင်းရီ | တိုင်းရင်းသား စည်းလုံးညီညွတ်ရေးပါတီ| 22485| N	1187|  DAW THAUNG YEE | National Unity Party (NUP)| 22485| N
 Sagaing-12
1188| ဦးမြတ်ကို | ပြည်ထောင်စုကြံ့ခိုင်ရေးနှင့် ဖွံ့ဖြိုးရေးပါတီ| 39410| N	1188| U MYAT KO | Union Solidarity And Development Party| 39410| N
1189| ဦးလာသော်ကဲ | တိုင်းရင်းသား စည်းလုံးညီညွတ်ရေးပါတီ| 8630| N	1189| U LA THAW KE | National Unity Party (NUP)| 8630| N
 Shan-1
1245| ဦးဉာဏ်လင်း | ပြည်ထောင်စုကြံ့ခိုင်ရေးနှင့် ဖွံ့ဖြိုးရေးပါတီ| 244251| N	1245|  U NYAN LINN | Union Solidarity And Development Party| 244251| N
1249| ဦးခွန်ကျော် | တိုင်းရင်းသား စည်းလုံးညီညွတ်ရေးပါတီ| 103959| N	1249|  U KHUN KYAW | National Unity Party (NUP)| 103959| N
1251| ဦးစန်းယု |  အင်းအမျိုးသားဖွံ့ဖြိုးတိုးတက်ရေးပါတီ| 75234| N	1251| U SAN YU | Inn National Development Party| 75234| N
1252| ဦးမိှုင်း | ကယန်းအမျိုးသားပါတီ| 17801| N	1252|  U HMAING | Kayan National Party| 17801| N
 Shan-2
1021| စိုင်းကျော်ဇောသန်း | ရှမ်းတိုင်းရင်းသားများဒီမိုကရက်တစ်ပါတီ| 94071| N	1021| U Sai Kyaw Zaw Than| Shan Nationalities Democratic Party| 94071| N
1253| ဦးဆိုင်းဆိုင် | ပြည်ထောင်စုကြံ့ခိုင်ရေးနှင့် ဖွံ့ဖြိုးရေးပါတီ| 73586| N	1253|  U SAING SAI | Union Solidarity And Development Party| 73586| N
1254| ဦးကောင်စစ် | တိုင်းရင်းသား စည်းလုံးညီညွတ်ရေးပါတီ| 15897| N	1254| U KAUNG SIT | National Unity Party (NUP)| 15897| N
 Shan-3
1032| စိုင်းခမ်းလိုင်| ရှမ်းတိုင်းရင်းသားများဒီမိုကရက်တစ်ပါတီ| 68120| N	1032| Sai Kham Hlaing| Shan Nationalities Democratic Party| 68120| N
1255| ဒေါက်တာစိုင်းမောက်ခမ်း | ပြည်ထောင်စုကြံ့ခိုင်ရေးနှင့် ဖွံ့ဖြိုးရေးပါတီ|81105| N	1255|  DR.SAI MAUK KHAM | Union Solidarity And Development Party| 81105| N
1256| ဦးပေါ်ဦး| တိုင်းရင်းသား စည်းလုံးညီညွတ်ရေးပါတီ| 14270| N	1256| U PAW OO | National Unity Party (NUP)| 14270| N
1257| ဦးလော်ဆင်ကွမ်း |  ကိုးကန့် ဒီမိုကရေစီနှင့် ညီညွတ်ရေးပါတီ| 26950| N	1257|  U LAW SIN KWAN | Kokang Democracy And Unity Party| 26950| N
 Shan-4
1053| စိုင်းသန့်ဇင်| ရှမ်းတိုင်းရင်းသားများဒီမိုကရက်တစ်ပါတီ| 123458| N	1053| Sai Thant Zin| Shan Nationalities Democratic Party| 123458| N
1258| ဦးခွန်ပွင့် | ပြည်ထောင်စုကြံ့ခိုင်ရေးနှင့် ဖွံ့ဖြိုးရေးပါတီ| 89318| N	1258|  U KHUN PWINT | Union Solidarity And Development Party| 89318| N
1259| ဦးအောင်သန်းဦး | တိုင်းရင်းသား စည်းလုံးညီညွတ်ရေးပါတီ| 41252| N	1259| U AUNG THAN OO | National Unity Party (NUP)| 41252| N
 Shan-5
1025| စိုင်းဖိုးမြတ်| ရှမ်းတိုင်းရင်းသားများဒီမိုကရက်တစ်ပါတီ| 47876| N	1025| Sai Phoe Myat| Shan Nationalities Democratic Party| 47876| N
1260| ဦးအောင်သန်းဦး | ပြည်ထောင်စုကြံ့ခိုင်ရေးနှင့် ဖွံ့ဖြိုးရေးပါတီ| 65720| N	1260|  U AUNG THAN OO | Union Solidarity And Development Party| 65720| N
1261| ဦးယောရှု | တိုင်းရင်းသား စည်းလုံးညီညွတ်ရေးပါတီ| 15361| N	1261|  U YAW SHU | National Unity Party (NUP)| 15361| N
1262| ဦးကျော်အေး |  တအောင်း(ပလောင်)အမျိုးသားပါတီ| 37501| N	1262|  U KYAW AYE | Ta-Aung (Palaung) National Party| 37501| N
 Shan-6
912| ဦးအိုက်ဆော(ခ)ဦးစောနန္ဒီ | အမျိုးသားဒီမိုကရေစီအင်အားစု| 5842| N	912|  U AIK SAW (a) U SAWNANDI| National Democratic Force| 5842| N
1017| စိုင်းကံညွန့်| ရှမ်းတိုင်းရင်းသားများဒီမိုကရက်တစ်ပါတီ| 17230| N	1017| Sai Kan Nyunt| Shan Nationalities Democratic Party| 17230| N
1264| ဒေါက်တာစိုင်းဆိုင်ကျောက်ဆမ် | ပြည်ထောင်စုကြံ့ခိုင်ရေးနှင့် ဖွံ့ဖြိုးရေးပါတီ| 55188| N	1264| DR. SAI SAING KYAUK SAM | Union Solidarity And Development Party| 55188|N
1265| ဦးစိုင်းမုန့်ရွက် | တိုင်းရင်းသား စည်းလုံးညီညွတ်ရေးပါတီ| 3224| N	1265|  U SAI MON YWET | National Unity Party (NUP)| 3224| N
 Shan-7
1057| နန်းငေွှမ | ရှမ်းတိုင်းရင်းသားများဒီမိုကရက်တစ်ပါတီ| 41224| N	1057| Nan Ngwe Mya| Shan Nationalities Democratic Party| 41224| N
1266| ဦးဝီလ်ဆင်မိုး| ပြည်ထောင်စုကြံ့ခိုင်ရေးနှင့် ဖွံ့ဖြိုးရေးပါတီ| 79494| N	1266|  U WILSON MOE | Union Solidarity And Development Party| 79494| N
1267| ဦးစပ်သင်စိုင်| တိုင်းရင်းသား စည်းလုံးညီညွတ်ရေးပါတီ| 14814| N	1267|  U SAO THIN SAI | National Unity Party (NUP)| 14814| N
 Shan-8
1269| ဦးရှုမောင် | ပြည်ထောင်စုကြံ့ခိုင်ရေးနှင့် ဖွံ့ဖြိုးရေးပါတီ| 32276| N	1269|  U SHU MAUNG | Union Solidarity And Development Party| 32276| N
1270| ဦးဖေဝင်း | တိုင်းရင်းသား စည်းလုံးညီညွတ်ရေးပါတီ| 11924| N	1270|  U PE WIN | National Unity Party (NUP)| 11924| N
1271| ဦးမြသန်း | တစ်သီးပုဂ္ဂလကိုယ်စားလှယ်လောင်းများ| 30221| N	1271|  U MYA THAN | Independent Candidates| 30221| N
 Shan-9
1272| ဦးနေဝင်းထွန်း | ပအိုဝ်းအမျိုးသားအဖွဲ့ချုပ်| 0| Y	1272|  U NAY WIN TUN | Pa-O National Organization (PNO)| 0| Y
 Shan-10
1273| ဦးထွန်းကျော် |  တအောင်း(ပလောင်)အမျိုးသားပါတီ| 0| Y	1273|  U TUN KYAW | Ta-Aung (Palaung) National Party| 0| Y
 Shan-11
1274| ဦးလျူကွက်ရိှ | ပြည်ထောင်စုကြံ့ခိုင်ရေးနှင့် ဖွံ့ဖြိုးရေးပါတီ| 0| Y	1274|  U LU KWET SHU | Union Solidarity And Development Party| 0| Y
 Shan-12
1277| ဦးညီပလုပ် | ၀အမျိုးသား စည်းလုံးညီညွတ်ရေးပါတီ| 1703| N	1277| U NYI PALOKE | Wa National Unity Party| 1703| N
1278| ဦးစိုင်ပေါင်နပ် | ‘ဝ’ ဒီမိုကရက်တစ်ပါတီ| 23542| N	1278|  U SAI PAO NAT | Wa Democratic Party| 23542| N
 Tanintharyi-1
1008| ဦးထွန်းပို| အမျိုးသားဒီမိုကရေစီအင်အားစု| 6334| N	1008| U Tun Po| National Democratic Force| 6334| N
1423|  ဦးစိုးသက် | ပြည်ထောင်စုကြံ့ခိုင်ရေးနှင့် ဖွံ့ဖြိုးရေးပါတီ| 11209| N	1423| U SOE THET | Union Solidarity And Development Party| 11209| N
1424| ဦးဉာဏ်ရေွှ | တိုင်းရင်းသား စည်းလုံးညီညွတ်ရေးပါတီ| 6886| N	1424| U NYAN SHWE | National Unity Party (NUP)| 6886| N
 Tanintharyi-2
1009| ဦးအောင်ဌေး| အမျိုးသားဒီမိုကရေစီအင်အားစု| 7865| N	1009| U Aung Htay | National Democratic Force| 7865| N
1425| ဦးသန်းဆေွ | ပြည်ထောင်စုကြံ့ခိုင်ရေးနှင့် ဖွံ့ဖြိုးရေးပါတီ| 15858| N	1425|  U THAN SWE | Union Solidarity And Development Party| 15858| N
1427| ဦးသိန်းမြင့် | တိုင်းရင်းသား စည်းလုံးညီညွတ်ရေးပါတီ| 7865| N	1427|  U THEIN MYINT | National Unity Party (NUP)| 7865| N
 Tanintharyi-3
1429| ဦးတင်မောင်မြင့် | ပြည်ထောင်စုကြံ့ခိုင်ရေးနှင့် ဖွံ့ဖြိုးရေးပါတီ| 37098|N	1429|  U TIN MAUNG MYINT | Union Solidarity And Development Party| 37098| N
1430| ဦးလှသန်း | တိုင်းရင်းသား စည်းလုံးညီညွတ်ရေးပါတီ| 18443| N	1430|  U HLA THAN | National Unity Party (NUP)| 18443| N
 Tanintharyi-4
1431| ဦးအောင်ဝင်း| ပြည်ထောင်စုကြံ့ခိုင်ရေးနှင့် ဖွံ့ဖြိုးရေးပါတီ| 24830| N	1431|  U AUNG WIN | Union Solidarity And Development Party| 24830| N
1432| ဦးဝင်းထိန် | တိုင်းရင်းသား စည်းလုံးညီညွတ်ရေးပါတီ| 16462| N	1432| U WIN HTEIN | National Unity Party (NUP)| 16462| N
1433| ဦးအောင်သိမ်း | တစ်သီးပုဂ္ဂလကိုယ်စားလှယ်လောင်းများ| 943| N	1433|  U AUNG THEIN | Independent Candidates| 943| N
 Tanintharyi-5
561| ဦးနေဖူးဗဆေွ| ဒီမိုကရက်တစ်ပါတီ(မြန်မာ)| 10848| N	561| U NAY PHU BA SWE| Democratic Party (Myanmar)| 10848| N
1434| ဦးမောင်စိန် | ပြည်ထောင်စုကြံ့ခိုင်ရေးနှင့် ဖွံ့ဖြိုးရေးပါတီ| 16829| N	1434| U MAUNG SEIN | Union Solidarity And Development Party| 16829| N
1435| ဦးကျော်ကျော်ဦး | တိုင်းရင်းသား စည်းလုံးညီညွတ်ရေးပါတီ| 15470| N	1435|  U KYAW KYAW OO | National Unity Party (NUP)| 15470| N
 Tanintharyi-6
1436| ဦးတင်ရန် | ပြည်ထောင်စုကြံ့ခိုင်ရေးနှင့် ဖွံ့ဖြိုးရေးပါတီ| 44032| N	1436|  U TIN YAN | Union Solidarity And Development Party| 44032| N
1437| ဦးတန်စ | တိုင်းရင်းသား စည်းလုံးညီညွတ်ရေးပါတီ| 17410| N	1437| U TAN SA | National Unity Party (NUP)| 17410| N
 Tanintharyi-7
1439| ဦးမိုးမြင့် | ပြည်ထောင်စုကြံ့ခိုင်ရေးနှင့် ဖွံ့ဖြိုးရေးပါတီ| 28943| N	1439|  U MOE MYINT | Union Solidarity And Development Party| 28943| N
1440| ဦးဟန်တင် | တိုင်းရင်းသား စည်းလုံးညီညွတ်ရေးပါတီ| 21317| N	1440|  U HAN TIN | National Unity Party (NUP)| 21317| N
 Tanintharyi-8
1441| ဦးကျားမောင်(ခ)ဦးမောင်ကျား | ပြည်ထောင်စုကြံ့ခိုင်ရေးနှင့် ဖွံ့ဖြိုးရေးပါတီ| 0| Y	1441| U KYAR MAUNG (a) U MAUNG KYAR | Union Solidarity And Development Party|0| Y
 Tanintharyi-9
1443| ဦးလှစိုး | ပြည်ထောင်စုကြံ့ခိုင်ရေးနှင့် ဖွံ့ဖြိုးရေးပါတီ| 46541| N	1443|  U HLA SOE | Union Solidarity And Development Party| 46541| N
1445| ဦးညွန့်တင်အေး | တိုင်းရင်းသား စည်းလုံးညီညွတ်ရေးပါတီ| 10273| N	1445|  U NYUNT TIN AYE | National Unity Party (NUP)| 10273| N
 Tanintharyi-10
1446| ဦးသန်းမြင့် | ပြည်ထောင်စုကြံ့ခိုင်ရေးနှင့် ဖွံ့ဖြိုးရေးပါတီ| 0| Y	1446| U THAN MYINT | Union Solidarity And Development Party| 0| Y
 Tanintharyi-11
1447| ဦးလှအေး | ပြည်ထောင်စုကြံ့ခိုင်ရေးနှင့် ဖွံ့ဖြိုးရေးပါတီ| 29125| N	1447| U HLA AYE | Union Solidarity And Development Party| 29125| N
1449| ဦးခင်မောင်ဝင်း | တိုင်းရင်းသား စည်းလုံးညီညွတ်ရေးပါတီ| 15206| N	1449|  U KHIN MAUNG WIN | National Unity Party (NUP)| 15206| N
 Tanintharyi-12
1451| ဦးတိုးဝင်း | ပြည်ထောင်စုကြံ့ခိုင်ရေးနှင့် ဖွံ့ဖြိုးရေးပါတီ| 21133| N	1451| U TOE WIN | Union Solidarity And Development Party| 21133| N
1452| ဦးမျိုးလွင် | တိုင်းရင်းသား စည်းလုံးညီညွတ်ရေးပါတီ| 10253| N	1452|  U MYO LWIN | National Unity Party (NUP)| 10253| N
 Yangon-1
167| ဦးကျော်ကျော်မင်း| တစ်သီးပုဂ္ဂလကိုယ်စားလှယ်လောင်းများ| 12278| N	167| U Kyaw Kyaw Min| Independent Candidates| 12278| N
276| ဦးတင်ခ| ပြည်ထောင်စုကြံ့ခိုင်ရေးနှင့် ဖွံ့ဖြိုးရေးပါတီ| 106074| N	276| U TIN KHA| Union Solidarity And Development Party| 106074| N
1109| ဒေါ်စောစောဦး | တိုင်းရင်းသား စည်းလုံးညီညွတ်ရေးပါတီ| 30406| N	1109| DAW SAW SAW OO| National Unity Party (NUP)| 30406| N
785| ဒေါ်ခင်ဝိုင်းကြည်| အမျိုးသားဒီမိုကရေစီအင်အားစု| 114548| N	785| DAW KHIN WAING KYI| National Democratic Force| 114548| N
906| ဦးထွန်းမင်းလတ်|  ဒီမိုကရေစီနှင့်ငြိမ်းချမ်းရေးပါတီ| 5728| N	906| U TUN MIN LATT| Democracy And Peace Party| 5728| N
 Yangon-2
191| ဦးလေးစိုး| ၈၈မျိုးဆက်ကျောင်းသားလူငယ်များ(ပြည်ထောင်စုမြန်မာနိုင်ငံ)|27265| N	191| U LAY SOE| 88 Generation Student Youths (Union Of Myanmar)| 27265| N
277| ဦးညွန့်တင်| ပြည်ထောင်စုကြံ့ခိုင်ရေးနှင့် ဖွံ့ဖြိုးရေးပါတီ| 122086| N	277| U NYUNT TIN| Union Solidarity And Development Party| 122086| N
1110| ဦးဆေွသန့်ကို| တိုင်းရင်းသား စည်းလုံးညီညွတ်ရေးပါတီ| 37329| N	1110| U SWE THANT KO| National Unity Party (NUP)| 37329| N
786| ဦးထွန်းအောင်| အမျိုးသားဒီမိုကရေစီအင်အားစု| 90333| N	786| U TUN AUNG| National Democratic Force| 90333| N
 Yangon-3
1111| ဦးကျော်မြတ်ဦး| တိုင်းရင်းသား စည်းလုံးညီညွတ်ရေးပါတီ| 17906| N	1111| U KYAW MYAT OO| National Unity Party (NUP)| 17906| N
278| ဒေါက်တာမောင်သင်း| ပြည်ထောင်စုကြံ့ခိုင်ရေးနှင့် ဖွံ့ဖြိုးရေးပါတီ| 86713| N	278| DR. MAUNG THINN| Union Solidarity And Development Party| 86713| N
538| ဦးဇော်အေးအောင်| ဒီမိုကရက်တစ်ပါတီ(မြန်မာ)| 11535| N	538| U ZAW AYE AUNG| Democratic Party (Myanmar)| 11535| N
787| ဦးဖုန်းမြင့်အောင်| အမျိုးသားဒီမိုကရေစီအင်အားစု| 92338| N	787| U PHONE MYINT AUNG| National Democratic Force| 92338| N
 Yangon-4
1112| ဦးသီဟမင်းအောင်| တိုင်းရင်းသား စည်းလုံးညီညွတ်ရေးပါတီ| 20344| N	1112| U THIHA MIN AUNG| National Unity Party (NUP)| 20344| N
279| ဦးမြတ်သူ (ခ)ကျော်ဇင်ညွန့်| ပြည်ထောင်စုကြံ့ခိုင်ရေးနှင့် ဖွံ့ဖြိုးရေးပါတီ| 78714| N	279| U MYAT THU (a) KYAW ZIN NYUNT| Union Solidarity And Development Party|78714| N
536| ဦးတင်နိုင်| ဒီမိုကရက်တစ်ပါတီ(မြန်မာ)| 27354| N	536| U TIN NAING| Democratic Party (Myanmar)| 27354| N
788| Dr. မြတ်ဉာဏစိုး| အမျိုးသားဒီမိုကရေစီအင်အားစု| 83558| N	788| DR. MYAT NYAN SOE| National Democratic Force| 83558| N
 Yangon-5
26| ဦးရဲထွန်း| ၈၈မျိုးဆက်ကျောင်းသားလူငယ်များ(ပြည်ထောင်စုမြန်မာနိုင်ငံ)|24683| N	26| U YE TUN| 88 Generation Student Youths (Union Of Myanmar)| 24683| N
1113| ဦးကျော်သိန်း| တိုင်းရင်းသား စည်းလုံးညီညွတ်ရေးပါတီ| 23709| N	1113| U KYAW THEIN| National Unity Party (NUP)| 23709| N
280| ဦးဝင်းနောင်| ပြည်ထောင်စုကြံ့ခိုင်ရေးနှင့် ဖွံ့ဖြိုးရေးပါတီ| 81950| N	280| U WIN NAUNG| Union Solidarity And Development Party| 81950| N
789| ဦးသောင်းထွန်း| အမျိုးသားဒီမိုကရေစီအင်အားစု| 69407| N	789| U THAUNG TUN| National Democratic Force| 69407| N
 Yangon-6
1114| ဦးဝင်းမြင့်| တိုင်းရင်းသား စည်းလုံးညီညွတ်ရေးပါတီ| 18087| N	1114| U Win Myint| National Unity Party (NUP)| 18087| N
168| ဦးစန်းမြင့် | တစ်သီးပုဂ္ဂလကိုယ်စားလှယ်လောင်းများ| 7313| N	168| U San Myint| Independent Candidates| 7313| N
192| ဦးသော်လင်းထွန်း|၈၈မျိုးဆက်ကျောင်းသားလူငယ်များ(ပြည်ထောင်စုမြန်မာနိုင်ငံ)| 17815| N	192| U THAW LIN TUN| 88 Generation Student Youths (Union Of Myanmar)| 17815| N
281| ဒေါက်တာမျိုးသန်းတင်| ပြည်ထောင်စုကြံ့ခိုင်ရေးနှင့် ဖွံ့ဖြိုးရေးပါတီ|70317| N	281| DR. MYO THAN TIN| Union Solidarity And Development Party| 70317| N
790| ဒေါက်တာတင်ရေွှ| အမျိုးသားဒီမိုကရေစီအင်အားစု| 77541| N	790| DR. TIN SHWE| National Democratic Force| 77541| N
 Yangon-7
282| ဦးမြငြိမ်း | ပြည်ထောင်စုကြံ့ခိုင်ရေးနှင့် ဖွံ့ဖြိုးရေးပါတီ| 106069| N	282| U MYA NYEIN| Union Solidarity And Development Party| 106069| N
791| ဦးသိန်းဇော်ညွှန့်| အမျိုးသားဒီမိုကရေစီအင်အားစု| 27592| N	791| U THEIN ZAW NYUNT| National Democratic Force| 27592| N
1115| ဦးအောင်ထွန်း| တိုင်းရင်းသား စည်းလုံးညီညွတ်ရေးပါတီ| 32678| N	1115| U Aung Htun| National Unity Party (NUP)| 32678| N
 Yangon-8
283| ဒေါက်တာမြင့်ကြည်| ပြည်ထောင်စုကြံ့ခိုင်ရေးနှင့် ဖွံ့ဖြိုးရေးပါတီ| 137628|N	283| DR. MYINT KYI| Union Solidarity And Development Party| 137628| N
792| ဒေါက်တာလှမျိုး| အမျိုးသားဒီမိုကရေစီအင်အားစု| 85689| N	792| DR. HLA MYO| National Democratic Force| 85689| N
1116| ဦးဌေးမြင့်မောင်| တိုင်းရင်းသား စည်းလုံးညီညွတ်ရေးပါတီ| 38669| N	1116| U Htay Myint Aung| National Unity Party (NUP)| 38669| N
 Yangon-9
284| ဒေါက်တာခင်ဆေွ| ပြည်ထောင်စုကြံ့ခိုင်ရေးနှင့် ဖွံ့ဖြိုးရေးပါတီ| 173208| N	284| DR. KHIN SHWE| Union Solidarity And Development Party| 173208| N
576| ဦးမန်းအုန်းမြင့်သိန်း| ကရင်ပြည်သူ့ပါတီ| 15461| N	576| Mahn Ohn Myint Thein | Kayin People’s Party| 15461| N
630| ဦးတင်မောင်ဝင်း| ခေတ်သစ်ပြည်သူ့ပါတီ| 7332| N	630| U TIN MAUNG WIN| Modern People’s Party| 7332| N
1117| ဦးကျော်မြင့်| တိုင်းရင်းသား စည်းလုံးညီညွတ်ရေးပါတီ| 38830| N	1117| U Kyaw Myint | National Unity Party (NUP)| 38830| N
 Yangon-10
1119| ဒေါက်တာ ကျော်မင်း| တိုင်းရင်းသား စည်းလုံးညီညွတ်ရေးပါတီ| 51903| N	1119| Dr. Kyaw Min| National Unity Party (NUP)| 51903| N
286| ဦးနု| ပြည်ထောင်စုကြံ့ခိုင်ရေးနှင့် ဖွံ့ဖြိုးရေးပါတီ| 116682| N	286| U NU| Union Solidarity And Development Party| 116682| N
539| ဦးသိုက်ထွန်း| ဒီမိုကရက်တစ်ပါတီ(မြန်မာ)| 39018| N	539| U THAIK TUN| Democratic Party (Myanmar)| 39018| N
613|  ဦးတင်ထွန်းအောင်|  အမျိုးသားနိုင်ငံရေးမဟာမိတ်များအဖွဲ့ချုပ်| 17448| N	613| U TIN TUN AUNG| National Political Alliances League| 17448| N
622| ဦးနေမျိုးဝေ| မတူကွဲပြားခြင်းနှင့်ငြိမ်းချမ်းရေးပါတီ| 8532| N	622| U NAY MYO WAI|  Peace and Diversity Party | 8532| N
 Yangon-11
193| ဦးအောင်ကျော်စိုး|၈၈မျိုးဆက်ကျောင်းသားလူငယ်များ(ပြည်ထောင်စုမြန်မာနိုင်ငံ)| 68761| N	193| U AUNG KYAW SOE| 88 Generation Student Youths (Union Of Myanmar)| 68761|N
1120| ဦးတင့်ဆေွ| တိုင်းရင်းသား စည်းလုံးညီညွတ်ရေးပါတီ| 60025| N	1120| U Tint Swe| National Unity Party (NUP)| 60025| N
287| ဦးတင်ယု| ပြည်ထောင်စုကြံ့ခိုင်ရေးနှင့် ဖွံ့ဖြိုးရေးပါတီ| 146234| N	287| U TIN YU| Union Solidarity And Development Party| 146234| N
793| ဦးသန့်ဇင်| အမျိုးသားဒီမိုကရေစီအင်အားစု| 61101| N	793| U THANT ZIN| National Democratic Force| 61101| N
 Yangon-12
288| ဦးဆေွအောင်| ပြည်ထောင်စုကြံ့ခိုင်ရေးနှင့် ဖွံ့ဖြိုးရေးပါတီ| 213443| N	288| U SWE AUNG| Union Solidarity And Development Party| 213443| N
1121| ဦးညွန့်အောင်| တိုင်းရင်းသား စည်းလုံးညီညွတ်ရေးပါတီ| 71805| N	1121| U Nyunt Aung| National Unity Party (NUP)| 71805| N
794| ဦးသီဟစိုး| အမျိုးသားဒီမိုကရေစီအင်အားစု| 44590| N	794| U THIHA SOE| National Democratic Force| 44590| N
